%!PS-Adobe-2.0
%%Creator: dot version 1.10 (Wed Jul 9 23:09:17 EDT 2003)
%%For: Bill Gates
%%Title: main
%%Pages: (atend)
%%BoundingBox: 35 35 508 757
%%EndComments
save
%%BeginProlog
/DotDict 200 dict def
DotDict begin

/setupLatin1 {
mark
/EncodingVector 256 array def
 EncodingVector 0

ISOLatin1Encoding 0 255 getinterval putinterval

EncodingVector
  dup 306 /AE
  dup 301 /Aacute
  dup 302 /Acircumflex
  dup 304 /Adieresis
  dup 300 /Agrave
  dup 305 /Aring
  dup 303 /Atilde
  dup 307 /Ccedilla
  dup 311 /Eacute
  dup 312 /Ecircumflex
  dup 313 /Edieresis
  dup 310 /Egrave
  dup 315 /Iacute
  dup 316 /Icircumflex
  dup 317 /Idieresis
  dup 314 /Igrave
  dup 334 /Udieresis
  dup 335 /Yacute
  dup 376 /thorn
  dup 337 /germandbls
  dup 341 /aacute
  dup 342 /acircumflex
  dup 344 /adieresis
  dup 346 /ae
  dup 340 /agrave
  dup 345 /aring
  dup 347 /ccedilla
  dup 351 /eacute
  dup 352 /ecircumflex
  dup 353 /edieresis
  dup 350 /egrave
  dup 355 /iacute
  dup 356 /icircumflex
  dup 357 /idieresis
  dup 354 /igrave
  dup 360 /dcroat
  dup 361 /ntilde
  dup 363 /oacute
  dup 364 /ocircumflex
  dup 366 /odieresis
  dup 362 /ograve
  dup 365 /otilde
  dup 370 /oslash
  dup 372 /uacute
  dup 373 /ucircumflex
  dup 374 /udieresis
  dup 371 /ugrave
  dup 375 /yacute
  dup 377 /ydieresis  

% Set up ISO Latin 1 character encoding
/starnetISO {
        dup dup findfont dup length dict begin
        { 1 index /FID ne { def }{ pop pop } ifelse
        } forall
        /Encoding EncodingVector def
        currentdict end definefont
} def
/Times-Roman starnetISO def
/Times-Italic starnetISO def
/Times-Bold starnetISO def
/Times-BoldItalic starnetISO def
/Helvetica starnetISO def
/Helvetica-Oblique starnetISO def
/Helvetica-Bold starnetISO def
/Helvetica-BoldOblique starnetISO def
/Courier starnetISO def
/Courier-Oblique starnetISO def
/Courier-Bold starnetISO def
/Courier-BoldOblique starnetISO def
cleartomark
} bind def

%%BeginResource: procset
/coord-font-family /Times-Roman def
/default-font-family /Times-Roman def
/coordfont coord-font-family findfont 8 scalefont def

/InvScaleFactor 1.0 def
/set_scale {
	dup 1 exch div /InvScaleFactor exch def
	dup scale
} bind def

% styles
/solid { [] 0 setdash } bind def
/dashed { [9 InvScaleFactor mul dup ] 0 setdash } bind def
/dotted { [1 InvScaleFactor mul 6 InvScaleFactor mul] 0 setdash } bind def
/invis {/fill {newpath} def /stroke {newpath} def /show {pop newpath} def} bind def
/bold { 2 setlinewidth } bind def
/filled { } bind def
/unfilled { } bind def
/rounded { } bind def
/diagonals { } bind def

% hooks for setting color 
/nodecolor { sethsbcolor } bind def
/edgecolor { sethsbcolor } bind def
/graphcolor { sethsbcolor } bind def
/nopcolor {pop pop pop} bind def

/beginpage {	% i j npages
	/npages exch def
	/j exch def
	/i exch def
	/str 10 string def
	npages 1 gt {
		gsave
			coordfont setfont
			0 0 moveto
			(\() show i str cvs show (,) show j str cvs show (\)) show
		grestore
	} if
} bind def

/set_font {
	findfont exch
	scalefont setfont
} def

% draw aligned label in bounding box aligned to current point
/alignedtext {			% width adj text
	/text exch def
	/adj exch def
	/width exch def
	gsave
		width 0 gt {
			text stringwidth pop adj mul 0 rmoveto
		} if
		[] 0 setdash
		text show
	grestore
} def

/boxprim {				% xcorner ycorner xsize ysize
		4 2 roll
		moveto
		2 copy
		exch 0 rlineto
		0 exch rlineto
		pop neg 0 rlineto
		closepath
} bind def

/ellipse_path {
	/ry exch def
	/rx exch def
	/y exch def
	/x exch def
	matrix currentmatrix
	newpath
	x y translate
	rx ry scale
	0 0 1 0 360 arc
	setmatrix
} bind def

/endpage { showpage } bind def
/showpage { } def

/layercolorseq
	[	% layer color sequence - darkest to lightest
		[0 0 0]
		[.2 .8 .8]
		[.4 .8 .8]
		[.6 .8 .8]
		[.8 .8 .8]
	]
def

/layerlen layercolorseq length def

/setlayer {/maxlayer exch def /curlayer exch def
	layercolorseq curlayer 1 sub layerlen mod get
	aload pop sethsbcolor
	/nodecolor {nopcolor} def
	/edgecolor {nopcolor} def
	/graphcolor {nopcolor} def
} bind def

/onlayer { curlayer ne {invis} if } def

/onlayers {
	/myupper exch def
	/mylower exch def
	curlayer mylower lt
	curlayer myupper gt
	or
	{invis} if
} def

/curlayer 0 def

%%EndResource
%%EndProlog
%%BeginSetup
14 default-font-family set_font
1 setmiterlimit
% /arrowlength 10 def
% /arrowwidth 5 def

% make sure pdfmark is harmless for PS-interpreters other than Distiller
/pdfmark where {pop} {userdict /pdfmark /cleartomark load put} ifelse
% make '<<' and '>>' safe on PS Level 1 devices
/languagelevel where {pop languagelevel}{1} ifelse
2 lt {
    userdict (<<) cvn ([) cvn load put
    userdict (>>) cvn ([) cvn load put
} if

%%EndSetup
%%Page: 1 1
%%PageBoundingBox: 36 36 508 757
%%PageOrientation: Portrait
gsave
35 35 473 722 boxprim clip newpath
36 36 translate
0 0 1 beginpage
0.2149 set_scale
0 0 translate 0 rotate
0.000 0.000 0.000 graphcolor
14.00 /Times-Roman set_font

%	1
gsave 10 dict begin
filled
0.667 1.000 1.000 nodecolor
0.667 1.000 1.000 nodecolor
78 3285 72 56 ellipse_path
fill
0.667 1.000 1.000 nodecolor
gsave 10 dict begin
0.000 0.000 0.000 nodecolor
64.00 /Helvetica set_font
78 3263 moveto 22 -0.5 (1) alignedtext
end grestore
end grestore

%	2
gsave 10 dict begin
filled
0.667 1.000 1.000 nodecolor
0.667 1.000 1.000 nodecolor
78 3055 72 56 ellipse_path
fill
0.667 1.000 1.000 nodecolor
gsave 10 dict begin
0.000 0.000 0.000 nodecolor
64.00 /Helvetica set_font
78 3033 moveto 37 -0.5 (2) alignedtext
end grestore
end grestore

%	1 -> 2
newpath 78 3228 moveto
78 3205 78 3177 78 3151 curveto
stroke
gsave 10 dict begin
solid
1 setlinewidth
0.000 0.000 0.000 edgecolor
newpath 88 3152 moveto
78 3112 lineto
68 3152 lineto
closepath
fill
0.000 0.000 0.000 edgecolor
newpath 88 3152 moveto
78 3112 lineto
68 3152 lineto
closepath
stroke
end grestore
gsave 10 dict begin
64.00 /Helvetica set_font
816 3148 moveto 1411 -0.5 (FunctionCall\(printf\("Enter the 3 numbers: "\)\)) alignedtext
end grestore

%	3
gsave 10 dict begin
filled
0.667 1.000 1.000 nodecolor
0.667 1.000 1.000 nodecolor
78 2825 72 56 ellipse_path
fill
0.667 1.000 1.000 nodecolor
gsave 10 dict begin
0.000 0.000 0.000 nodecolor
64.00 /Helvetica set_font
78 2803 moveto 32 -0.5 (3) alignedtext
end grestore
end grestore

%	2 -> 3
newpath 78 2998 moveto
78 2975 78 2947 78 2921 curveto
stroke
gsave 10 dict begin
solid
1 setlinewidth
0.000 0.000 0.000 edgecolor
newpath 88 2922 moveto
78 2882 lineto
68 2922 lineto
closepath
fill
0.000 0.000 0.000 edgecolor
newpath 88 2922 moveto
78 2882 lineto
68 2922 lineto
closepath
stroke
end grestore
gsave 10 dict begin
64.00 /Helvetica set_font
179 2918 moveto 139 -0.5 (Skip) alignedtext
end grestore

%	4
gsave 10 dict begin
filled
0.667 1.000 1.000 nodecolor
0.667 1.000 1.000 nodecolor
78 2595 72 56 ellipse_path
fill
0.667 1.000 1.000 nodecolor
gsave 10 dict begin
0.000 0.000 0.000 nodecolor
64.00 /Helvetica set_font
78 2573 moveto 38 -0.5 (4) alignedtext
end grestore
end grestore

%	3 -> 4
newpath 78 2768 moveto
78 2745 78 2717 78 2691 curveto
stroke
gsave 10 dict begin
solid
1 setlinewidth
0.000 0.000 0.000 edgecolor
newpath 88 2692 moveto
78 2652 lineto
68 2692 lineto
closepath
fill
0.000 0.000 0.000 edgecolor
newpath 88 2692 moveto
78 2652 lineto
68 2692 lineto
closepath
stroke
end grestore
gsave 10 dict begin
64.00 /Helvetica set_font
653 2688 moveto 1086 -0.5 (FunctionCall\(x@main = readInt\(\)\)) alignedtext
end grestore

%	5
gsave 10 dict begin
filled
0.667 1.000 1.000 nodecolor
0.667 1.000 1.000 nodecolor
78 2365 72 56 ellipse_path
fill
0.667 1.000 1.000 nodecolor
gsave 10 dict begin
0.000 0.000 0.000 nodecolor
64.00 /Helvetica set_font
78 2343 moveto 33 -0.5 (5) alignedtext
end grestore
end grestore

%	4 -> 5
newpath 78 2538 moveto
78 2515 78 2487 78 2461 curveto
stroke
gsave 10 dict begin
solid
1 setlinewidth
0.000 0.000 0.000 edgecolor
newpath 88 2462 moveto
78 2422 lineto
68 2462 lineto
closepath
fill
0.000 0.000 0.000 edgecolor
newpath 88 2462 moveto
78 2422 lineto
68 2462 lineto
closepath
stroke
end grestore
gsave 10 dict begin
64.00 /Helvetica set_font
179 2458 moveto 139 -0.5 (Skip) alignedtext
end grestore

%	6
gsave 10 dict begin
filled
0.667 1.000 1.000 nodecolor
0.667 1.000 1.000 nodecolor
78 2135 72 56 ellipse_path
fill
0.667 1.000 1.000 nodecolor
gsave 10 dict begin
0.000 0.000 0.000 nodecolor
64.00 /Helvetica set_font
78 2113 moveto 36 -0.5 (6) alignedtext
end grestore
end grestore

%	5 -> 6
newpath 78 2308 moveto
78 2285 78 2257 78 2231 curveto
stroke
gsave 10 dict begin
solid
1 setlinewidth
0.000 0.000 0.000 edgecolor
newpath 88 2232 moveto
78 2192 lineto
68 2232 lineto
closepath
fill
0.000 0.000 0.000 edgecolor
newpath 88 2232 moveto
78 2192 lineto
68 2232 lineto
closepath
stroke
end grestore
gsave 10 dict begin
64.00 /Helvetica set_font
654 2228 moveto 1087 -0.5 (FunctionCall\(y@main = readInt\(\)\)) alignedtext
end grestore

%	7
gsave 10 dict begin
filled
0.667 1.000 1.000 nodecolor
0.667 1.000 1.000 nodecolor
78 1905 72 56 ellipse_path
fill
0.667 1.000 1.000 nodecolor
gsave 10 dict begin
0.000 0.000 0.000 nodecolor
64.00 /Helvetica set_font
78 1883 moveto 36 -0.5 (7) alignedtext
end grestore
end grestore

%	6 -> 7
newpath 78 2078 moveto
78 2055 78 2027 78 2001 curveto
stroke
gsave 10 dict begin
solid
1 setlinewidth
0.000 0.000 0.000 edgecolor
newpath 88 2002 moveto
78 1962 lineto
68 2002 lineto
closepath
fill
0.000 0.000 0.000 edgecolor
newpath 88 2002 moveto
78 1962 lineto
68 2002 lineto
closepath
stroke
end grestore
gsave 10 dict begin
64.00 /Helvetica set_font
179 1998 moveto 139 -0.5 (Skip) alignedtext
end grestore

%	8
gsave 10 dict begin
filled
0.667 1.000 1.000 nodecolor
0.667 1.000 1.000 nodecolor
78 1675 72 56 ellipse_path
fill
0.667 1.000 1.000 nodecolor
gsave 10 dict begin
0.000 0.000 0.000 nodecolor
64.00 /Helvetica set_font
78 1653 moveto 32 -0.5 (8) alignedtext
end grestore
end grestore

%	7 -> 8
newpath 78 1848 moveto
78 1825 78 1797 78 1771 curveto
stroke
gsave 10 dict begin
solid
1 setlinewidth
0.000 0.000 0.000 edgecolor
newpath 88 1772 moveto
78 1732 lineto
68 1772 lineto
closepath
fill
0.000 0.000 0.000 edgecolor
newpath 88 1772 moveto
78 1732 lineto
68 1772 lineto
closepath
stroke
end grestore
gsave 10 dict begin
64.00 /Helvetica set_font
650 1768 moveto 1080 -0.5 (FunctionCall\(z@main = readInt\(\)\)) alignedtext
end grestore

%	9
gsave 10 dict begin
filled
0.667 1.000 1.000 nodecolor
0.667 1.000 1.000 nodecolor
78 1445 72 56 ellipse_path
fill
0.667 1.000 1.000 nodecolor
gsave 10 dict begin
0.000 0.000 0.000 nodecolor
64.00 /Helvetica set_font
78 1423 moveto 35 -0.5 (9) alignedtext
end grestore
end grestore

%	8 -> 9
newpath 78 1618 moveto
78 1595 78 1567 78 1541 curveto
stroke
gsave 10 dict begin
solid
1 setlinewidth
0.000 0.000 0.000 edgecolor
newpath 88 1542 moveto
78 1502 lineto
68 1542 lineto
closepath
fill
0.000 0.000 0.000 edgecolor
newpath 88 1542 moveto
78 1502 lineto
68 1542 lineto
closepath
stroke
end grestore
gsave 10 dict begin
64.00 /Helvetica set_font
179 1538 moveto 139 -0.5 (Skip) alignedtext
end grestore

%	10
gsave 10 dict begin
filled
0.667 1.000 1.000 nodecolor
0.667 1.000 1.000 nodecolor
78 1215 77 56 ellipse_path
fill
0.667 1.000 1.000 nodecolor
gsave 10 dict begin
0.000 0.000 0.000 nodecolor
64.00 /Helvetica set_font
78 1193 moveto 58 -0.5 (10) alignedtext
end grestore
end grestore

%	9 -> 10
newpath 78 1388 moveto
78 1365 78 1337 78 1311 curveto
stroke
gsave 10 dict begin
solid
1 setlinewidth
0.000 0.000 0.000 edgecolor
newpath 88 1312 moveto
78 1272 lineto
68 1312 lineto
closepath
fill
0.000 0.000 0.000 edgecolor
newpath 88 1312 moveto
78 1272 lineto
68 1312 lineto
closepath
stroke
end grestore
gsave 10 dict begin
64.00 /Helvetica set_font
1137 1308 moveto 2053 -0.5 (FunctionCall\(tmp@main = middle\(x@main, y@main, z@main\)\)) alignedtext
end grestore

%	11
gsave 10 dict begin
filled
0.667 1.000 1.000 nodecolor
0.667 1.000 1.000 nodecolor
78 985 72 56 ellipse_path
fill
0.667 1.000 1.000 nodecolor
gsave 10 dict begin
0.000 0.000 0.000 nodecolor
64.00 /Helvetica set_font
78 963 moveto 44 -0.5 (11) alignedtext
end grestore
end grestore

%	10 -> 11
newpath 78 1158 moveto
78 1135 78 1107 78 1081 curveto
stroke
gsave 10 dict begin
solid
1 setlinewidth
0.000 0.000 0.000 edgecolor
newpath 88 1082 moveto
78 1042 lineto
68 1082 lineto
closepath
fill
0.000 0.000 0.000 edgecolor
newpath 88 1082 moveto
78 1042 lineto
68 1082 lineto
closepath
stroke
end grestore
gsave 10 dict begin
64.00 /Helvetica set_font
179 1078 moveto 139 -0.5 (Skip) alignedtext
end grestore

%	12
gsave 10 dict begin
filled
0.667 1.000 1.000 nodecolor
0.667 1.000 1.000 nodecolor
78 755 78 56 ellipse_path
fill
0.667 1.000 1.000 nodecolor
gsave 10 dict begin
0.000 0.000 0.000 nodecolor
64.00 /Helvetica set_font
78 733 moveto 59 -0.5 (12) alignedtext
end grestore
end grestore

%	11 -> 12
newpath 78 928 moveto
78 905 78 877 78 851 curveto
stroke
gsave 10 dict begin
solid
1 setlinewidth
0.000 0.000 0.000 edgecolor
newpath 88 852 moveto
78 812 lineto
68 852 lineto
closepath
fill
0.000 0.000 0.000 edgecolor
newpath 88 852 moveto
78 812 lineto
68 852 lineto
closepath
stroke
end grestore
gsave 10 dict begin
64.00 /Helvetica set_font
991 848 moveto 1762 -0.5 (FunctionCall\(printf\("Middle number: %d", tmp@main\)\)) alignedtext
end grestore

%	13
gsave 10 dict begin
filled
0.667 1.000 1.000 nodecolor
0.667 1.000 1.000 nodecolor
78 525 75 56 ellipse_path
fill
0.667 1.000 1.000 nodecolor
gsave 10 dict begin
0.000 0.000 0.000 nodecolor
64.00 /Helvetica set_font
78 503 moveto 54 -0.5 (13) alignedtext
end grestore
end grestore

%	12 -> 13
newpath 78 698 moveto
78 675 78 647 78 621 curveto
stroke
gsave 10 dict begin
solid
1 setlinewidth
0.000 0.000 0.000 edgecolor
newpath 88 622 moveto
78 582 lineto
68 622 lineto
closepath
fill
0.000 0.000 0.000 edgecolor
newpath 88 622 moveto
78 582 lineto
68 622 lineto
closepath
stroke
end grestore
gsave 10 dict begin
64.00 /Helvetica set_font
179 618 moveto 139 -0.5 (Skip) alignedtext
end grestore

%	14
gsave 10 dict begin
filled
0.667 1.000 1.000 nodecolor
0.667 1.000 1.000 nodecolor
78 295 78 56 ellipse_path
fill
0.667 1.000 1.000 nodecolor
gsave 10 dict begin
0.000 0.000 0.000 nodecolor
64.00 /Helvetica set_font
78 273 moveto 60 -0.5 (14) alignedtext
end grestore
end grestore

%	13 -> 14
newpath 78 468 moveto
78 445 78 417 78 391 curveto
stroke
gsave 10 dict begin
solid
1 setlinewidth
0.000 0.000 0.000 edgecolor
newpath 88 392 moveto
78 352 lineto
68 392 lineto
closepath
fill
0.000 0.000 0.000 edgecolor
newpath 88 392 moveto
78 352 lineto
68 392 lineto
closepath
stroke
end grestore
gsave 10 dict begin
64.00 /Helvetica set_font
542 388 moveto 863 -0.5 (Block\(__retres@main = 0;\)) alignedtext
end grestore

%	0
gsave 10 dict begin
filled
0.667 1.000 1.000 nodecolor
0.667 1.000 1.000 nodecolor
78 65 72 56 ellipse_path
fill
0.667 1.000 1.000 nodecolor
gsave 10 dict begin
0.000 0.000 0.000 nodecolor
64.00 /Helvetica set_font
78 43 moveto 36 -0.5 (0) alignedtext
end grestore
end grestore

%	14 -> 0
newpath 78 238 moveto
78 215 78 187 78 161 curveto
stroke
gsave 10 dict begin
solid
1 setlinewidth
0.000 0.000 0.000 edgecolor
newpath 88 162 moveto
78 122 lineto
68 162 lineto
closepath
fill
0.000 0.000 0.000 edgecolor
newpath 88 162 moveto
78 122 lineto
68 162 lineto
closepath
stroke
end grestore
gsave 10 dict begin
64.00 /Helvetica set_font
615 158 moveto 1010 -0.5 (Block\(Return\(__retres@main\);\)) alignedtext
end grestore
endpage
showpage
grestore
%%PageTrailer
%%EndPage: 1
%%Page: 2 2
%%PageBoundingBox: 36 36 577 214
%%PageOrientation: Portrait
gsave
35 35 542 179 boxprim clip newpath
36 36 translate
0 0 1 beginpage
0.1001 set_scale
0 0 translate 0 rotate
0.000 0.000 0.000 graphcolor
14.00 /Times-Roman set_font

%	1
gsave 10 dict begin
filled
0.333 1.000 1.000 nodecolor
0.333 1.000 1.000 nodecolor
2485 1709 72 56 ellipse_path
fill
0.333 1.000 1.000 nodecolor
gsave 10 dict begin
0.000 0.000 0.000 nodecolor
64.00 /Helvetica set_font
2485 1687 moveto 22 -0.5 (1) alignedtext
end grestore
end grestore

%	2
gsave 10 dict begin
filled
0.333 1.000 1.000 nodecolor
0.333 1.000 1.000 nodecolor
2485 1479 72 56 ellipse_path
fill
0.333 1.000 1.000 nodecolor
gsave 10 dict begin
0.000 0.000 0.000 nodecolor
64.00 /Helvetica set_font
2485 1457 moveto 37 -0.5 (2) alignedtext
end grestore
end grestore

%	1 -> 2
newpath 2485 1652 moveto
2485 1629 2485 1601 2485 1575 curveto
stroke
gsave 10 dict begin
solid
1 setlinewidth
0.000 0.000 0.000 edgecolor
newpath 2495 1576 moveto
2485 1536 lineto
2475 1576 lineto
closepath
fill
0.000 0.000 0.000 edgecolor
newpath 2495 1576 moveto
2485 1536 lineto
2475 1576 lineto
closepath
stroke
end grestore
gsave 10 dict begin
64.00 /Helvetica set_font
3020 1572 moveto 1006 -0.5 (Block\(m@middle = z@middle;\)) alignedtext
end grestore

%	4
gsave 10 dict begin
filled
0.333 1.000 1.000 nodecolor
0.333 1.000 1.000 nodecolor
1869 1249 72 56 ellipse_path
fill
0.333 1.000 1.000 nodecolor
gsave 10 dict begin
0.000 0.000 0.000 nodecolor
64.00 /Helvetica set_font
1869 1227 moveto 38 -0.5 (4) alignedtext
end grestore
end grestore

%	2 -> 4
newpath 2413 1474 moveto
2269 1463 1954 1435 1916 1404 curveto
1898 1389 1887 1366 1880 1343 curveto
stroke
gsave 10 dict begin
solid
1 setlinewidth
0.000 0.000 0.000 edgecolor
newpath 1890 1343 moveto
1872 1306 lineto
1871 1347 lineto
closepath
fill
0.000 0.000 0.000 edgecolor
newpath 1890 1343 moveto
1872 1306 lineto
1871 1347 lineto
closepath
stroke
end grestore
gsave 10 dict begin
64.00 /Helvetica set_font
2492 1342 moveto 1078 -0.5 (Pred\(Not \(y@middle<z@middle\)\)) alignedtext
end grestore

%	3
gsave 10 dict begin
filled
0.333 1.000 1.000 nodecolor
0.333 1.000 1.000 nodecolor
3125 1249 72 56 ellipse_path
fill
0.333 1.000 1.000 nodecolor
gsave 10 dict begin
0.000 0.000 0.000 nodecolor
64.00 /Helvetica set_font
3125 1227 moveto 32 -0.5 (3) alignedtext
end grestore
end grestore

%	2 -> 3
newpath 2557 1474 moveto
2702 1462 3022 1434 3062 1404 curveto
3082 1388 3095 1365 3105 1341 curveto
stroke
gsave 10 dict begin
solid
1 setlinewidth
0.000 0.000 0.000 edgecolor
newpath 3114 1346 moveto
3116 1305 lineto
3095 1340 lineto
closepath
fill
0.000 0.000 0.000 edgecolor
newpath 3114 1346 moveto
3116 1305 lineto
3095 1340 lineto
closepath
stroke
end grestore
gsave 10 dict begin
64.00 /Helvetica set_font
3587 1342 moveto 889 -0.5 (Pred\(y@middle<z@middle\)) alignedtext
end grestore

%	13
gsave 10 dict begin
filled
0.333 1.000 1.000 nodecolor
0.333 1.000 1.000 nodecolor
685 1019 75 56 ellipse_path
fill
0.333 1.000 1.000 nodecolor
gsave 10 dict begin
0.000 0.000 0.000 nodecolor
64.00 /Helvetica set_font
685 997 moveto 54 -0.5 (13) alignedtext
end grestore
end grestore

%	4 -> 13
newpath 1797 1247 moveto
1548 1239 739 1212 699 1174 curveto
683 1158 676 1136 674 1113 curveto
stroke
gsave 10 dict begin
solid
1 setlinewidth
0.000 0.000 0.000 edgecolor
newpath 684 1115 moveto
674 1075 lineto
664 1115 lineto
closepath
fill
0.000 0.000 0.000 edgecolor
newpath 684 1115 moveto
674 1075 lineto
664 1115 lineto
closepath
stroke
end grestore
gsave 10 dict begin
64.00 /Helvetica set_font
1278 1112 moveto 1084 -0.5 (Pred\(Not \(x@middle>y@middle\)\)) alignedtext
end grestore

%	12
gsave 10 dict begin
filled
0.333 1.000 1.000 nodecolor
0.333 1.000 1.000 nodecolor
1868 887 78 56 ellipse_path
fill
0.333 1.000 1.000 nodecolor
gsave 10 dict begin
0.000 0.000 0.000 nodecolor
64.00 /Helvetica set_font
1868 865 moveto 59 -0.5 (12) alignedtext
end grestore
end grestore

%	4 -> 12
newpath 1869 1192 moveto
1869 1136 1869 1047 1868 980 curveto
stroke
gsave 10 dict begin
solid
1 setlinewidth
0.000 0.000 0.000 edgecolor
newpath 1878 984 moveto
1868 944 lineto
1858 984 lineto
closepath
fill
0.000 0.000 0.000 edgecolor
newpath 1878 984 moveto
1868 944 lineto
1858 984 lineto
closepath
stroke
end grestore
gsave 10 dict begin
64.00 /Helvetica set_font
2348 1112 moveto 895 -0.5 (Pred\(x@middle>y@middle\)) alignedtext
end grestore

%	7
gsave 10 dict begin
filled
0.333 1.000 1.000 nodecolor
0.333 1.000 1.000 nodecolor
2423 525 72 56 ellipse_path
fill
0.333 1.000 1.000 nodecolor
gsave 10 dict begin
0.000 0.000 0.000 nodecolor
64.00 /Helvetica set_font
2423 503 moveto 36 -0.5 (7) alignedtext
end grestore
end grestore

%	13 -> 7
newpath 612 1007 moveto
456 979 103 907 33 812 curveto
4 771 0 736 33 698 curveto
158 553 1553 535 1743 532 curveto
1945 528 2180 526 2314 525 curveto
stroke
gsave 10 dict begin
solid
1 setlinewidth
0.000 0.000 0.000 edgecolor
newpath 2311 535 moveto
2351 525 lineto
2311 515 lineto
closepath
fill
0.000 0.000 0.000 edgecolor
newpath 2311 535 moveto
2351 525 lineto
2311 515 lineto
closepath
stroke
end grestore
gsave 10 dict begin
64.00 /Helvetica set_font
607 733 moveto 1077 -0.5 (Pred\(Not \(x@middle>z@middle\)\)) alignedtext
end grestore

%	15
gsave 10 dict begin
filled
0.333 1.000 1.000 nodecolor
0.333 1.000 1.000 nodecolor
1259 755 76 56 ellipse_path
fill
0.333 1.000 1.000 nodecolor
gsave 10 dict begin
0.000 0.000 0.000 nodecolor
64.00 /Helvetica set_font
1259 733 moveto 55 -0.5 (15) alignedtext
end grestore
end grestore

%	13 -> 15
newpath 710 965 moveto
733 920 774 859 829 830 curveto
896 794 1095 834 1168 812 curveto
stroke
gsave 10 dict begin
solid
1 setlinewidth
0.000 0.000 0.000 edgecolor
newpath 1173 821 moveto
1205 795 lineto
1164 803 lineto
closepath
fill
0.000 0.000 0.000 edgecolor
newpath 1173 821 moveto
1205 795 lineto
1164 803 lineto
closepath
stroke
end grestore
gsave 10 dict begin
64.00 /Helvetica set_font
1305 865 moveto 888 -0.5 (Pred\(x@middle>z@middle\)) alignedtext
end grestore

%	8
gsave 10 dict begin
filled
0.333 1.000 1.000 nodecolor
0.333 1.000 1.000 nodecolor
2423 295 72 56 ellipse_path
fill
0.333 1.000 1.000 nodecolor
gsave 10 dict begin
0.000 0.000 0.000 nodecolor
64.00 /Helvetica set_font
2423 273 moveto 32 -0.5 (8) alignedtext
end grestore
end grestore

%	7 -> 8
newpath 2423 468 moveto
2423 445 2423 417 2423 391 curveto
stroke
gsave 10 dict begin
solid
1 setlinewidth
0.000 0.000 0.000 edgecolor
newpath 2433 392 moveto
2423 352 lineto
2413 392 lineto
closepath
fill
0.000 0.000 0.000 edgecolor
newpath 2433 392 moveto
2423 352 lineto
2413 392 lineto
closepath
stroke
end grestore
gsave 10 dict begin
64.00 /Helvetica set_font
3072 388 moveto 1234 -0.5 (Block\(__retres@middle = m@middle;\)) alignedtext
end grestore

%	0
gsave 10 dict begin
unfilled
0.000 1.000 1.000 nodecolor
2423 65 72 56 ellipse_path
stroke
gsave 10 dict begin
0.000 0.000 0.000 nodecolor
64.00 /Helvetica set_font
2423 43 moveto 36 -0.5 (0) alignedtext
end grestore
end grestore

%	8 -> 0
newpath 2423 238 moveto
2423 215 2423 187 2423 161 curveto
stroke
gsave 10 dict begin
solid
1 setlinewidth
0.000 0.000 0.000 edgecolor
newpath 2433 162 moveto
2423 122 lineto
2413 162 lineto
closepath
fill
0.000 0.000 0.000 edgecolor
newpath 2433 162 moveto
2423 122 lineto
2413 162 lineto
closepath
stroke
end grestore
gsave 10 dict begin
64.00 /Helvetica set_font
2987 158 moveto 1064 -0.5 (Block\(Return\(__retres@middle\);\)) alignedtext
end grestore

%	15 -> 7
newpath 1205 715 moveto
1194 708 1182 702 1169 698 curveto
1128 684 808 711 777 680 curveto
753 654 753 625 777 600 curveto
831 544 1948 529 2311 526 curveto
stroke
gsave 10 dict begin
solid
1 setlinewidth
0.000 0.000 0.000 edgecolor
newpath 2311 536 moveto
2351 526 lineto
2311 516 lineto
closepath
fill
0.000 0.000 0.000 edgecolor
newpath 2311 536 moveto
2351 526 lineto
2311 516 lineto
closepath
stroke
end grestore
gsave 10 dict begin
64.00 /Helvetica set_font
1318 618 moveto 1012 -0.5 (Block\(m@middle = x@middle;\)) alignedtext
end grestore

%	12 -> 7
newpath 1857 831 moveto
1852 790 1852 735 1881 698 curveto
1936 629 2172 573 2314 545 curveto
stroke
gsave 10 dict begin
solid
1 setlinewidth
0.000 0.000 0.000 edgecolor
newpath 2316 555 moveto
2353 537 lineto
2312 535 lineto
closepath
fill
0.000 0.000 0.000 edgecolor
newpath 2316 555 moveto
2353 537 lineto
2312 535 lineto
closepath
stroke
end grestore
gsave 10 dict begin
64.00 /Helvetica set_font
2420 733 moveto 1013 -0.5 (Block\(m@middle = y@middle;\)) alignedtext
end grestore

%	6
gsave 10 dict begin
filled
0.333 1.000 1.000 nodecolor
0.333 1.000 1.000 nodecolor
3125 1019 72 56 ellipse_path
fill
0.333 1.000 1.000 nodecolor
gsave 10 dict begin
0.000 0.000 0.000 nodecolor
64.00 /Helvetica set_font
3125 997 moveto 36 -0.5 (6) alignedtext
end grestore
end grestore

%	3 -> 6
newpath 3125 1192 moveto
3125 1169 3125 1141 3125 1115 curveto
stroke
gsave 10 dict begin
solid
1 setlinewidth
0.000 0.000 0.000 edgecolor
newpath 3135 1116 moveto
3125 1076 lineto
3115 1116 lineto
closepath
fill
0.000 0.000 0.000 edgecolor
newpath 3135 1116 moveto
3125 1076 lineto
3115 1116 lineto
closepath
stroke
end grestore
gsave 10 dict begin
64.00 /Helvetica set_font
3699 1112 moveto 1084 -0.5 (Pred\(Not \(x@middle<y@middle\)\)) alignedtext
end grestore

%	5
gsave 10 dict begin
filled
0.333 1.000 1.000 nodecolor
0.333 1.000 1.000 nodecolor
4318 887 72 56 ellipse_path
fill
0.333 1.000 1.000 nodecolor
gsave 10 dict begin
0.000 0.000 0.000 nodecolor
64.00 /Helvetica set_font
4318 865 moveto 33 -0.5 (5) alignedtext
end grestore
end grestore

%	3 -> 5
newpath 3197 1247 moveto
3443 1239 4236 1210 4277 1174 curveto
4329 1125 4336 1040 4331 976 curveto
stroke
gsave 10 dict begin
solid
1 setlinewidth
0.000 0.000 0.000 edgecolor
newpath 4342 982 moveto
4328 943 lineto
4322 984 lineto
closepath
fill
0.000 0.000 0.000 edgecolor
newpath 4342 982 moveto
4328 943 lineto
4322 984 lineto
closepath
stroke
end grestore
gsave 10 dict begin
64.00 /Helvetica set_font
4800 1112 moveto 895 -0.5 (Pred\(x@middle<y@middle\)) alignedtext
end grestore

%	6 -> 7
newpath 3086 971 moveto
3056 931 3014 871 2989 812 curveto
2968 764 2997 736 2962 698 curveto
2904 634 2672 576 2532 546 curveto
stroke
gsave 10 dict begin
solid
1 setlinewidth
0.000 0.000 0.000 edgecolor
newpath 2534 536 moveto
2493 538 lineto
2530 556 lineto
closepath
fill
0.000 0.000 0.000 edgecolor
newpath 2534 536 moveto
2493 538 lineto
2530 556 lineto
closepath
stroke
end grestore
gsave 10 dict begin
64.00 /Helvetica set_font
3560 733 moveto 1077 -0.5 (Pred\(Not \(x@middle<z@middle\)\)) alignedtext
end grestore

%	9
gsave 10 dict begin
filled
0.333 1.000 1.000 nodecolor
0.333 1.000 1.000 nodecolor
4211 755 72 56 ellipse_path
fill
0.333 1.000 1.000 nodecolor
gsave 10 dict begin
0.000 0.000 0.000 nodecolor
64.00 /Helvetica set_font
4211 733 moveto 35 -0.5 (9) alignedtext
end grestore
end grestore

%	6 -> 9
newpath 3152 966 moveto
3179 921 3225 858 3285 830 curveto
3369 789 4030 839 4124 812 curveto
stroke
gsave 10 dict begin
solid
1 setlinewidth
0.000 0.000 0.000 edgecolor
newpath 4128 821 moveto
4160 795 lineto
4120 803 lineto
closepath
fill
0.000 0.000 0.000 edgecolor
newpath 4128 821 moveto
4160 795 lineto
4120 803 lineto
closepath
stroke
end grestore
gsave 10 dict begin
64.00 /Helvetica set_font
3761 865 moveto 888 -0.5 (Pred\(x@middle<z@middle\)) alignedtext
end grestore

%	9 -> 7
newpath 4160 715 moveto
4149 708 4137 702 4125 698 curveto
4029 668 3327 697 3229 680 curveto
3120 660 3101 625 2994 600 curveto
2835 562 2646 542 2531 533 curveto
stroke
gsave 10 dict begin
solid
1 setlinewidth
0.000 0.000 0.000 edgecolor
newpath 2536 523 moveto
2495 530 lineto
2534 543 lineto
closepath
fill
0.000 0.000 0.000 edgecolor
newpath 2536 523 moveto
2495 530 lineto
2534 543 lineto
closepath
stroke
end grestore
gsave 10 dict begin
64.00 /Helvetica set_font
3788 618 moveto 1012 -0.5 (Block\(m@middle = x@middle;\)) alignedtext
end grestore

%	5 -> 7
newpath 4318 830 moveto
4318 749 4317 608 4309 600 curveto
4246 536 2930 527 2534 525 curveto
stroke
gsave 10 dict begin
solid
1 setlinewidth
0.000 0.000 0.000 edgecolor
newpath 2535 515 moveto
2495 525 lineto
2535 535 lineto
closepath
fill
0.000 0.000 0.000 edgecolor
newpath 2535 515 moveto
2495 525 lineto
2535 535 lineto
closepath
stroke
end grestore
gsave 10 dict begin
64.00 /Helvetica set_font
4856 733 moveto 1013 -0.5 (Block\(m@middle = y@middle;\)) alignedtext
end grestore
endpage
showpage
grestore
%%PageTrailer
%%EndPage: 2
%%Trailer
%%Pages: 2
end
restore
%%EOF
