# 1 "witchel_working_bv_tab.c"
# 1 "<built-in>"
# 1 "<command line>"
# 1 "witchel_working_bv_tab.c"



# 1 "/usr/include/stdlib.h" 1 3 4
# 25 "/usr/include/stdlib.h" 3 4
# 1 "/usr/include/features.h" 1 3 4
# 314 "/usr/include/features.h" 3 4
# 1 "/usr/include/sys/cdefs.h" 1 3 4
# 315 "/usr/include/features.h" 2 3 4
# 337 "/usr/include/features.h" 3 4
# 1 "/usr/include/gnu/stubs.h" 1 3 4
# 338 "/usr/include/features.h" 2 3 4
# 26 "/usr/include/stdlib.h" 2 3 4







# 1 "/usr/lib/gcc/i386-redhat-linux/3.4.3/include/stddef.h" 1 3 4
# 213 "/usr/lib/gcc/i386-redhat-linux/3.4.3/include/stddef.h" 3 4
typedef unsigned int size_t;
# 325 "/usr/lib/gcc/i386-redhat-linux/3.4.3/include/stddef.h" 3 4
typedef long int wchar_t;
# 34 "/usr/include/stdlib.h" 2 3 4


# 96 "/usr/include/stdlib.h" 3 4


typedef struct
  {
    int quot;
    int rem;
  } div_t;



typedef struct
  {
    long int quot;
    long int rem;
  } ldiv_t;



# 140 "/usr/include/stdlib.h" 3 4
extern size_t __ctype_get_mb_cur_max (void) __attribute__ ((__nothrow__));




extern double atof (__const char *__nptr)
     __attribute__ ((__nothrow__)) __attribute__ ((__pure__)) __attribute__ ((__nonnull__ (1)));

extern int atoi (__const char *__nptr)
     __attribute__ ((__nothrow__)) __attribute__ ((__pure__)) __attribute__ ((__nonnull__ (1)));

extern long int atol (__const char *__nptr)
     __attribute__ ((__nothrow__)) __attribute__ ((__pure__)) __attribute__ ((__nonnull__ (1)));





__extension__ extern long long int atoll (__const char *__nptr)
     __attribute__ ((__nothrow__)) __attribute__ ((__pure__)) __attribute__ ((__nonnull__ (1)));





extern double strtod (__const char *__restrict __nptr,
        char **__restrict __endptr) __attribute__ ((__nothrow__)) __attribute__ ((__nonnull__ (1)));

# 181 "/usr/include/stdlib.h" 3 4


extern long int strtol (__const char *__restrict __nptr,
   char **__restrict __endptr, int __base)
     __attribute__ ((__nothrow__)) __attribute__ ((__nonnull__ (1)));

extern unsigned long int strtoul (__const char *__restrict __nptr,
      char **__restrict __endptr, int __base)
     __attribute__ ((__nothrow__)) __attribute__ ((__nonnull__ (1)));




__extension__
extern long long int strtoq (__const char *__restrict __nptr,
        char **__restrict __endptr, int __base)
     __attribute__ ((__nothrow__)) __attribute__ ((__nonnull__ (1)));

__extension__
extern unsigned long long int strtouq (__const char *__restrict __nptr,
           char **__restrict __endptr, int __base)
     __attribute__ ((__nothrow__)) __attribute__ ((__nonnull__ (1)));





__extension__
extern long long int strtoll (__const char *__restrict __nptr,
         char **__restrict __endptr, int __base)
     __attribute__ ((__nothrow__)) __attribute__ ((__nonnull__ (1)));

__extension__
extern unsigned long long int strtoull (__const char *__restrict __nptr,
     char **__restrict __endptr, int __base)
     __attribute__ ((__nothrow__)) __attribute__ ((__nonnull__ (1)));

# 277 "/usr/include/stdlib.h" 3 4
extern double __strtod_internal (__const char *__restrict __nptr,
     char **__restrict __endptr, int __group)
     __attribute__ ((__nothrow__)) __attribute__ ((__nonnull__ (1)));
extern float __strtof_internal (__const char *__restrict __nptr,
    char **__restrict __endptr, int __group)
     __attribute__ ((__nothrow__)) __attribute__ ((__nonnull__ (1)));
extern long double __strtold_internal (__const char *__restrict __nptr,
           char **__restrict __endptr,
           int __group) __attribute__ ((__nothrow__)) __attribute__ ((__nonnull__ (1)));

extern long int __strtol_internal (__const char *__restrict __nptr,
       char **__restrict __endptr,
       int __base, int __group)
     __attribute__ ((__nothrow__)) __attribute__ ((__nonnull__ (1)));



extern unsigned long int __strtoul_internal (__const char *__restrict __nptr,
          char **__restrict __endptr,
          int __base, int __group)
     __attribute__ ((__nothrow__)) __attribute__ ((__nonnull__ (1)));




__extension__
extern long long int __strtoll_internal (__const char *__restrict __nptr,
      char **__restrict __endptr,
      int __base, int __group)
     __attribute__ ((__nothrow__)) __attribute__ ((__nonnull__ (1)));



__extension__
extern unsigned long long int __strtoull_internal (__const char *
         __restrict __nptr,
         char **__restrict __endptr,
         int __base, int __group)
     __attribute__ ((__nothrow__)) __attribute__ ((__nonnull__ (1)));
# 424 "/usr/include/stdlib.h" 3 4
extern char *l64a (long int __n) __attribute__ ((__nothrow__));


extern long int a64l (__const char *__s)
     __attribute__ ((__nothrow__)) __attribute__ ((__pure__)) __attribute__ ((__nonnull__ (1)));




# 1 "/usr/include/sys/types.h" 1 3 4
# 29 "/usr/include/sys/types.h" 3 4


# 1 "/usr/include/bits/types.h" 1 3 4
# 28 "/usr/include/bits/types.h" 3 4
# 1 "/usr/include/bits/wordsize.h" 1 3 4
# 29 "/usr/include/bits/types.h" 2 3 4


# 1 "/usr/lib/gcc/i386-redhat-linux/3.4.3/include/stddef.h" 1 3 4
# 32 "/usr/include/bits/types.h" 2 3 4


typedef unsigned char __u_char;
typedef unsigned short int __u_short;
typedef unsigned int __u_int;
typedef unsigned long int __u_long;


typedef signed char __int8_t;
typedef unsigned char __uint8_t;
typedef signed short int __int16_t;
typedef unsigned short int __uint16_t;
typedef signed int __int32_t;
typedef unsigned int __uint32_t;




__extension__ typedef signed long long int __int64_t;
__extension__ typedef unsigned long long int __uint64_t;







__extension__ typedef long long int __quad_t;
__extension__ typedef unsigned long long int __u_quad_t;
# 129 "/usr/include/bits/types.h" 3 4
# 1 "/usr/include/bits/typesizes.h" 1 3 4
# 130 "/usr/include/bits/types.h" 2 3 4






__extension__ typedef __u_quad_t __dev_t;
__extension__ typedef unsigned int __uid_t;
__extension__ typedef unsigned int __gid_t;
__extension__ typedef unsigned long int __ino_t;
__extension__ typedef __u_quad_t __ino64_t;
__extension__ typedef unsigned int __mode_t;
__extension__ typedef unsigned int __nlink_t;
__extension__ typedef long int __off_t;
__extension__ typedef __quad_t __off64_t;
__extension__ typedef int __pid_t;
__extension__ typedef struct { int __val[2]; } __fsid_t;
__extension__ typedef long int __clock_t;
__extension__ typedef unsigned long int __rlim_t;
__extension__ typedef __u_quad_t __rlim64_t;
__extension__ typedef unsigned int __id_t;
__extension__ typedef long int __time_t;
__extension__ typedef unsigned int __useconds_t;
__extension__ typedef long int __suseconds_t;

__extension__ typedef int __daddr_t;
__extension__ typedef long int __swblk_t;
__extension__ typedef int __key_t;


__extension__ typedef int __clockid_t;


__extension__ typedef int __timer_t;


__extension__ typedef long int __blksize_t;




__extension__ typedef long int __blkcnt_t;
__extension__ typedef __quad_t __blkcnt64_t;


__extension__ typedef unsigned long int __fsblkcnt_t;
__extension__ typedef __u_quad_t __fsblkcnt64_t;


__extension__ typedef unsigned long int __fsfilcnt_t;
__extension__ typedef __u_quad_t __fsfilcnt64_t;

__extension__ typedef int __ssize_t;



typedef __off64_t __loff_t;
typedef __quad_t *__qaddr_t;
typedef char *__caddr_t;


__extension__ typedef int __intptr_t;


__extension__ typedef unsigned int __socklen_t;
# 32 "/usr/include/sys/types.h" 2 3 4



typedef __u_char u_char;
typedef __u_short u_short;
typedef __u_int u_int;
typedef __u_long u_long;
typedef __quad_t quad_t;
typedef __u_quad_t u_quad_t;
typedef __fsid_t fsid_t;




typedef __loff_t loff_t;



typedef __ino_t ino_t;
# 62 "/usr/include/sys/types.h" 3 4
typedef __dev_t dev_t;




typedef __gid_t gid_t;




typedef __mode_t mode_t;




typedef __nlink_t nlink_t;




typedef __uid_t uid_t;





typedef __off_t off_t;
# 100 "/usr/include/sys/types.h" 3 4
typedef __pid_t pid_t;




typedef __id_t id_t;




typedef __ssize_t ssize_t;





typedef __daddr_t daddr_t;
typedef __caddr_t caddr_t;





typedef __key_t key_t;
# 133 "/usr/include/sys/types.h" 3 4
# 1 "/usr/include/time.h" 1 3 4
# 74 "/usr/include/time.h" 3 4


typedef __time_t time_t;



# 92 "/usr/include/time.h" 3 4
typedef __clockid_t clockid_t;
# 104 "/usr/include/time.h" 3 4
typedef __timer_t timer_t;
# 134 "/usr/include/sys/types.h" 2 3 4
# 147 "/usr/include/sys/types.h" 3 4
# 1 "/usr/lib/gcc/i386-redhat-linux/3.4.3/include/stddef.h" 1 3 4
# 148 "/usr/include/sys/types.h" 2 3 4



typedef unsigned long int ulong;
typedef unsigned short int ushort;
typedef unsigned int uint;
# 191 "/usr/include/sys/types.h" 3 4
typedef int int8_t __attribute__ ((__mode__ (__QI__)));
typedef int int16_t __attribute__ ((__mode__ (__HI__)));
typedef int int32_t __attribute__ ((__mode__ (__SI__)));
typedef int int64_t __attribute__ ((__mode__ (__DI__)));


typedef unsigned int u_int8_t __attribute__ ((__mode__ (__QI__)));
typedef unsigned int u_int16_t __attribute__ ((__mode__ (__HI__)));
typedef unsigned int u_int32_t __attribute__ ((__mode__ (__SI__)));
typedef unsigned int u_int64_t __attribute__ ((__mode__ (__DI__)));

typedef int register_t __attribute__ ((__mode__ (__word__)));
# 213 "/usr/include/sys/types.h" 3 4
# 1 "/usr/include/endian.h" 1 3 4
# 37 "/usr/include/endian.h" 3 4
# 1 "/usr/include/bits/endian.h" 1 3 4
# 38 "/usr/include/endian.h" 2 3 4
# 214 "/usr/include/sys/types.h" 2 3 4


# 1 "/usr/include/sys/select.h" 1 3 4
# 31 "/usr/include/sys/select.h" 3 4
# 1 "/usr/include/bits/select.h" 1 3 4
# 32 "/usr/include/sys/select.h" 2 3 4


# 1 "/usr/include/bits/sigset.h" 1 3 4
# 23 "/usr/include/bits/sigset.h" 3 4
typedef int __sig_atomic_t;




typedef struct
  {
    unsigned long int __val[(1024 / (8 * sizeof (unsigned long int)))];
  } __sigset_t;
# 35 "/usr/include/sys/select.h" 2 3 4



typedef __sigset_t sigset_t;





# 1 "/usr/include/time.h" 1 3 4
# 118 "/usr/include/time.h" 3 4
struct timespec
  {
    __time_t tv_sec;
    long int tv_nsec;
  };
# 45 "/usr/include/sys/select.h" 2 3 4

# 1 "/usr/include/bits/time.h" 1 3 4
# 69 "/usr/include/bits/time.h" 3 4
struct timeval
  {
    __time_t tv_sec;
    __suseconds_t tv_usec;
  };
# 47 "/usr/include/sys/select.h" 2 3 4


typedef __suseconds_t suseconds_t;





typedef long int __fd_mask;
# 67 "/usr/include/sys/select.h" 3 4
typedef struct
  {






    __fd_mask __fds_bits[1024 / (8 * sizeof (__fd_mask))];


  } fd_set;






typedef __fd_mask fd_mask;
# 99 "/usr/include/sys/select.h" 3 4

# 109 "/usr/include/sys/select.h" 3 4
extern int select (int __nfds, fd_set *__restrict __readfds,
     fd_set *__restrict __writefds,
     fd_set *__restrict __exceptfds,
     struct timeval *__restrict __timeout);
# 128 "/usr/include/sys/select.h" 3 4

# 217 "/usr/include/sys/types.h" 2 3 4


# 1 "/usr/include/sys/sysmacros.h" 1 3 4
# 29 "/usr/include/sys/sysmacros.h" 3 4
__extension__
extern __inline unsigned int gnu_dev_major (unsigned long long int __dev)
     __attribute__ ((__nothrow__));
__extension__
extern __inline unsigned int gnu_dev_minor (unsigned long long int __dev)
     __attribute__ ((__nothrow__));
__extension__
extern __inline unsigned long long int gnu_dev_makedev (unsigned int __major,
       unsigned int __minor)
     __attribute__ ((__nothrow__));


__extension__ extern __inline unsigned int
__attribute__ ((__nothrow__)) gnu_dev_major (unsigned long long int __dev)
{
  return ((__dev >> 8) & 0xfff) | ((unsigned int) (__dev >> 32) & ~0xfff);
}

__extension__ extern __inline unsigned int
__attribute__ ((__nothrow__)) gnu_dev_minor (unsigned long long int __dev)
{
  return (__dev & 0xff) | ((unsigned int) (__dev >> 12) & ~0xff);
}

__extension__ extern __inline unsigned long long int
__attribute__ ((__nothrow__)) gnu_dev_makedev (unsigned int __major, unsigned int __minor)
{
  return ((__minor & 0xff) | ((__major & 0xfff) << 8)
   | (((unsigned long long int) (__minor & ~0xff)) << 12)
   | (((unsigned long long int) (__major & ~0xfff)) << 32));
}
# 220 "/usr/include/sys/types.h" 2 3 4
# 231 "/usr/include/sys/types.h" 3 4
typedef __blkcnt_t blkcnt_t;



typedef __fsblkcnt_t fsblkcnt_t;



typedef __fsfilcnt_t fsfilcnt_t;
# 266 "/usr/include/sys/types.h" 3 4
# 1 "/usr/include/bits/pthreadtypes.h" 1 3 4
# 23 "/usr/include/bits/pthreadtypes.h" 3 4
# 1 "/usr/include/bits/sched.h" 1 3 4
# 83 "/usr/include/bits/sched.h" 3 4
struct __sched_param
  {
    int __sched_priority;
  };
# 24 "/usr/include/bits/pthreadtypes.h" 2 3 4


struct _pthread_fastlock
{
  long int __status;
  int __spinlock;

};



typedef struct _pthread_descr_struct *_pthread_descr;





typedef struct __pthread_attr_s
{
  int __detachstate;
  int __schedpolicy;
  struct __sched_param __schedparam;
  int __inheritsched;
  int __scope;
  size_t __guardsize;
  int __stackaddr_set;
  void *__stackaddr;
  size_t __stacksize;
} pthread_attr_t;





__extension__ typedef long long __pthread_cond_align_t;




typedef struct
{
  struct _pthread_fastlock __c_lock;
  _pthread_descr __c_waiting;
  char __padding[48 - sizeof (struct _pthread_fastlock)
   - sizeof (_pthread_descr) - sizeof (__pthread_cond_align_t)];
  __pthread_cond_align_t __align;
} pthread_cond_t;



typedef struct
{
  int __dummy;
} pthread_condattr_t;


typedef unsigned int pthread_key_t;





typedef struct
{
  int __m_reserved;
  int __m_count;
  _pthread_descr __m_owner;
  int __m_kind;
  struct _pthread_fastlock __m_lock;
} pthread_mutex_t;



typedef struct
{
  int __mutexkind;
} pthread_mutexattr_t;



typedef int pthread_once_t;
# 150 "/usr/include/bits/pthreadtypes.h" 3 4
typedef unsigned long int pthread_t;
# 267 "/usr/include/sys/types.h" 2 3 4



# 434 "/usr/include/stdlib.h" 2 3 4






extern long int random (void) __attribute__ ((__nothrow__));


extern void srandom (unsigned int __seed) __attribute__ ((__nothrow__));





extern char *initstate (unsigned int __seed, char *__statebuf,
   size_t __statelen) __attribute__ ((__nothrow__)) __attribute__ ((__nonnull__ (2)));



extern char *setstate (char *__statebuf) __attribute__ ((__nothrow__)) __attribute__ ((__nonnull__ (1)));







struct random_data
  {
    int32_t *fptr;
    int32_t *rptr;
    int32_t *state;
    int rand_type;
    int rand_deg;
    int rand_sep;
    int32_t *end_ptr;
  };

extern int random_r (struct random_data *__restrict __buf,
       int32_t *__restrict __result) __attribute__ ((__nothrow__)) __attribute__ ((__nonnull__ (1, 2)));

extern int srandom_r (unsigned int __seed, struct random_data *__buf)
     __attribute__ ((__nothrow__)) __attribute__ ((__nonnull__ (2)));

extern int initstate_r (unsigned int __seed, char *__restrict __statebuf,
   size_t __statelen,
   struct random_data *__restrict __buf)
     __attribute__ ((__nothrow__)) __attribute__ ((__nonnull__ (2, 4)));

extern int setstate_r (char *__restrict __statebuf,
         struct random_data *__restrict __buf)
     __attribute__ ((__nothrow__)) __attribute__ ((__nonnull__ (1, 2)));






extern int rand (void) __attribute__ ((__nothrow__));

extern void srand (unsigned int __seed) __attribute__ ((__nothrow__));




extern int rand_r (unsigned int *__seed) __attribute__ ((__nothrow__));







extern double drand48 (void) __attribute__ ((__nothrow__));
extern double erand48 (unsigned short int __xsubi[3]) __attribute__ ((__nothrow__)) __attribute__ ((__nonnull__ (1)));


extern long int lrand48 (void) __attribute__ ((__nothrow__));
extern long int nrand48 (unsigned short int __xsubi[3])
     __attribute__ ((__nothrow__)) __attribute__ ((__nonnull__ (1)));


extern long int mrand48 (void) __attribute__ ((__nothrow__));
extern long int jrand48 (unsigned short int __xsubi[3])
     __attribute__ ((__nothrow__)) __attribute__ ((__nonnull__ (1)));


extern void srand48 (long int __seedval) __attribute__ ((__nothrow__));
extern unsigned short int *seed48 (unsigned short int __seed16v[3])
     __attribute__ ((__nothrow__)) __attribute__ ((__nonnull__ (1)));
extern void lcong48 (unsigned short int __param[7]) __attribute__ ((__nothrow__)) __attribute__ ((__nonnull__ (1)));





struct drand48_data
  {
    unsigned short int __x[3];
    unsigned short int __old_x[3];
    unsigned short int __c;
    unsigned short int __init;
    unsigned long long int __a;
  };


extern int drand48_r (struct drand48_data *__restrict __buffer,
        double *__restrict __result) __attribute__ ((__nothrow__)) __attribute__ ((__nonnull__ (1, 2)));
extern int erand48_r (unsigned short int __xsubi[3],
        struct drand48_data *__restrict __buffer,
        double *__restrict __result) __attribute__ ((__nothrow__)) __attribute__ ((__nonnull__ (1, 2)));


extern int lrand48_r (struct drand48_data *__restrict __buffer,
        long int *__restrict __result)
     __attribute__ ((__nothrow__)) __attribute__ ((__nonnull__ (1, 2)));
extern int nrand48_r (unsigned short int __xsubi[3],
        struct drand48_data *__restrict __buffer,
        long int *__restrict __result)
     __attribute__ ((__nothrow__)) __attribute__ ((__nonnull__ (1, 2)));


extern int mrand48_r (struct drand48_data *__restrict __buffer,
        long int *__restrict __result)
     __attribute__ ((__nothrow__)) __attribute__ ((__nonnull__ (1, 2)));
extern int jrand48_r (unsigned short int __xsubi[3],
        struct drand48_data *__restrict __buffer,
        long int *__restrict __result)
     __attribute__ ((__nothrow__)) __attribute__ ((__nonnull__ (1, 2)));


extern int srand48_r (long int __seedval, struct drand48_data *__buffer)
     __attribute__ ((__nothrow__)) __attribute__ ((__nonnull__ (2)));

extern int seed48_r (unsigned short int __seed16v[3],
       struct drand48_data *__buffer) __attribute__ ((__nothrow__)) __attribute__ ((__nonnull__ (1, 2)));

extern int lcong48_r (unsigned short int __param[7],
        struct drand48_data *__buffer)
     __attribute__ ((__nothrow__)) __attribute__ ((__nonnull__ (1, 2)));









extern void *malloc (size_t __size) __attribute__ ((__nothrow__)) __attribute__ ((__malloc__));

extern void *calloc (size_t __nmemb, size_t __size)
     __attribute__ ((__nothrow__)) __attribute__ ((__malloc__));







extern void *realloc (void *__ptr, size_t __size) __attribute__ ((__nothrow__)) __attribute__ ((__malloc__));

extern void free (void *__ptr) __attribute__ ((__nothrow__));




extern void cfree (void *__ptr) __attribute__ ((__nothrow__));



# 1 "/usr/include/alloca.h" 1 3 4
# 25 "/usr/include/alloca.h" 3 4
# 1 "/usr/lib/gcc/i386-redhat-linux/3.4.3/include/stddef.h" 1 3 4
# 26 "/usr/include/alloca.h" 2 3 4







extern void *alloca (size_t __size) __attribute__ ((__nothrow__));






# 607 "/usr/include/stdlib.h" 2 3 4




extern void *valloc (size_t __size) __attribute__ ((__nothrow__)) __attribute__ ((__malloc__));
# 620 "/usr/include/stdlib.h" 3 4


extern void abort (void) __attribute__ ((__nothrow__)) __attribute__ ((__noreturn__));



extern int atexit (void (*__func) (void)) __attribute__ ((__nothrow__)) __attribute__ ((__nonnull__ (1)));





extern int on_exit (void (*__func) (int __status, void *__arg), void *__arg)
     __attribute__ ((__nothrow__)) __attribute__ ((__nonnull__ (1)));






extern void exit (int __status) __attribute__ ((__nothrow__)) __attribute__ ((__noreturn__));

# 652 "/usr/include/stdlib.h" 3 4


extern char *getenv (__const char *__name) __attribute__ ((__nothrow__)) __attribute__ ((__nonnull__ (1)));




extern char *__secure_getenv (__const char *__name) __attribute__ ((__nothrow__)) __attribute__ ((__nonnull__ (1)));





extern int putenv (char *__string) __attribute__ ((__nothrow__)) __attribute__ ((__nonnull__ (1)));





extern int setenv (__const char *__name, __const char *__value, int __replace)
     __attribute__ ((__nothrow__)) __attribute__ ((__nonnull__ (2)));


extern int unsetenv (__const char *__name) __attribute__ ((__nothrow__));






extern int clearenv (void) __attribute__ ((__nothrow__));
# 691 "/usr/include/stdlib.h" 3 4
extern char *mktemp (char *__template) __attribute__ ((__nothrow__)) __attribute__ ((__nonnull__ (1)));
# 702 "/usr/include/stdlib.h" 3 4
extern int mkstemp (char *__template) __attribute__ ((__nonnull__ (1)));
# 721 "/usr/include/stdlib.h" 3 4
extern char *mkdtemp (char *__template) __attribute__ ((__nothrow__)) __attribute__ ((__nonnull__ (1)));








extern int system (__const char *__command);

# 749 "/usr/include/stdlib.h" 3 4
extern char *realpath (__const char *__restrict __name,
         char *__restrict __resolved) __attribute__ ((__nothrow__));






typedef int (*__compar_fn_t) (__const void *, __const void *);









extern void *bsearch (__const void *__key, __const void *__base,
        size_t __nmemb, size_t __size, __compar_fn_t __compar)
     __attribute__ ((__nonnull__ (1, 2, 5)));



extern void qsort (void *__base, size_t __nmemb, size_t __size,
     __compar_fn_t __compar) __attribute__ ((__nonnull__ (1, 4)));



extern int abs (int __x) __attribute__ ((__nothrow__)) __attribute__ ((__const__));
extern long int labs (long int __x) __attribute__ ((__nothrow__)) __attribute__ ((__const__));












extern div_t div (int __numer, int __denom)
     __attribute__ ((__nothrow__)) __attribute__ ((__const__));
extern ldiv_t ldiv (long int __numer, long int __denom)
     __attribute__ ((__nothrow__)) __attribute__ ((__const__));

# 814 "/usr/include/stdlib.h" 3 4
extern char *ecvt (double __value, int __ndigit, int *__restrict __decpt,
     int *__restrict __sign) __attribute__ ((__nothrow__)) __attribute__ ((__nonnull__ (3, 4)));




extern char *fcvt (double __value, int __ndigit, int *__restrict __decpt,
     int *__restrict __sign) __attribute__ ((__nothrow__)) __attribute__ ((__nonnull__ (3, 4)));




extern char *gcvt (double __value, int __ndigit, char *__buf)
     __attribute__ ((__nothrow__)) __attribute__ ((__nonnull__ (3)));




extern char *qecvt (long double __value, int __ndigit,
      int *__restrict __decpt, int *__restrict __sign)
     __attribute__ ((__nothrow__)) __attribute__ ((__nonnull__ (3, 4)));
extern char *qfcvt (long double __value, int __ndigit,
      int *__restrict __decpt, int *__restrict __sign)
     __attribute__ ((__nothrow__)) __attribute__ ((__nonnull__ (3, 4)));
extern char *qgcvt (long double __value, int __ndigit, char *__buf)
     __attribute__ ((__nothrow__)) __attribute__ ((__nonnull__ (3)));




extern int ecvt_r (double __value, int __ndigit, int *__restrict __decpt,
     int *__restrict __sign, char *__restrict __buf,
     size_t __len) __attribute__ ((__nothrow__)) __attribute__ ((__nonnull__ (3, 4, 5)));
extern int fcvt_r (double __value, int __ndigit, int *__restrict __decpt,
     int *__restrict __sign, char *__restrict __buf,
     size_t __len) __attribute__ ((__nothrow__)) __attribute__ ((__nonnull__ (3, 4, 5)));

extern int qecvt_r (long double __value, int __ndigit,
      int *__restrict __decpt, int *__restrict __sign,
      char *__restrict __buf, size_t __len)
     __attribute__ ((__nothrow__)) __attribute__ ((__nonnull__ (3, 4, 5)));
extern int qfcvt_r (long double __value, int __ndigit,
      int *__restrict __decpt, int *__restrict __sign,
      char *__restrict __buf, size_t __len)
     __attribute__ ((__nothrow__)) __attribute__ ((__nonnull__ (3, 4, 5)));







extern int mblen (__const char *__s, size_t __n) __attribute__ ((__nothrow__));


extern int mbtowc (wchar_t *__restrict __pwc,
     __const char *__restrict __s, size_t __n) __attribute__ ((__nothrow__));


extern int wctomb (char *__s, wchar_t __wchar) __attribute__ ((__nothrow__));



extern size_t mbstowcs (wchar_t *__restrict __pwcs,
   __const char *__restrict __s, size_t __n) __attribute__ ((__nothrow__));

extern size_t wcstombs (char *__restrict __s,
   __const wchar_t *__restrict __pwcs, size_t __n)
     __attribute__ ((__nothrow__));








extern int rpmatch (__const char *__response) __attribute__ ((__nothrow__)) __attribute__ ((__nonnull__ (1)));
# 954 "/usr/include/stdlib.h" 3 4
extern int getloadavg (double __loadavg[], int __nelem)
     __attribute__ ((__nothrow__)) __attribute__ ((__nonnull__ (1)));






# 5 "witchel_working_bv_tab.c" 2
# 1 "/usr/include/stdio.h" 1 3 4
# 30 "/usr/include/stdio.h" 3 4




# 1 "/usr/lib/gcc/i386-redhat-linux/3.4.3/include/stddef.h" 1 3 4
# 35 "/usr/include/stdio.h" 2 3 4
# 44 "/usr/include/stdio.h" 3 4


typedef struct _IO_FILE FILE;





# 62 "/usr/include/stdio.h" 3 4
typedef struct _IO_FILE __FILE;
# 72 "/usr/include/stdio.h" 3 4
# 1 "/usr/include/libio.h" 1 3 4
# 32 "/usr/include/libio.h" 3 4
# 1 "/usr/include/_G_config.h" 1 3 4
# 14 "/usr/include/_G_config.h" 3 4
# 1 "/usr/lib/gcc/i386-redhat-linux/3.4.3/include/stddef.h" 1 3 4
# 354 "/usr/lib/gcc/i386-redhat-linux/3.4.3/include/stddef.h" 3 4
typedef unsigned int wint_t;
# 15 "/usr/include/_G_config.h" 2 3 4
# 24 "/usr/include/_G_config.h" 3 4
# 1 "/usr/include/wchar.h" 1 3 4
# 48 "/usr/include/wchar.h" 3 4
# 1 "/usr/lib/gcc/i386-redhat-linux/3.4.3/include/stddef.h" 1 3 4
# 49 "/usr/include/wchar.h" 2 3 4

# 1 "/usr/include/bits/wchar.h" 1 3 4
# 51 "/usr/include/wchar.h" 2 3 4
# 76 "/usr/include/wchar.h" 3 4
typedef struct
{
  int __count;
  union
  {
    wint_t __wch;
    char __wchb[4];
  } __value;
} __mbstate_t;
# 25 "/usr/include/_G_config.h" 2 3 4

typedef struct
{
  __off_t __pos;
  __mbstate_t __state;
} _G_fpos_t;
typedef struct
{
  __off64_t __pos;
  __mbstate_t __state;
} _G_fpos64_t;
# 44 "/usr/include/_G_config.h" 3 4
# 1 "/usr/include/gconv.h" 1 3 4
# 28 "/usr/include/gconv.h" 3 4
# 1 "/usr/include/wchar.h" 1 3 4
# 48 "/usr/include/wchar.h" 3 4
# 1 "/usr/lib/gcc/i386-redhat-linux/3.4.3/include/stddef.h" 1 3 4
# 49 "/usr/include/wchar.h" 2 3 4
# 29 "/usr/include/gconv.h" 2 3 4


# 1 "/usr/lib/gcc/i386-redhat-linux/3.4.3/include/stddef.h" 1 3 4
# 32 "/usr/include/gconv.h" 2 3 4





enum
{
  __GCONV_OK = 0,
  __GCONV_NOCONV,
  __GCONV_NODB,
  __GCONV_NOMEM,

  __GCONV_EMPTY_INPUT,
  __GCONV_FULL_OUTPUT,
  __GCONV_ILLEGAL_INPUT,
  __GCONV_INCOMPLETE_INPUT,

  __GCONV_ILLEGAL_DESCRIPTOR,
  __GCONV_INTERNAL_ERROR
};



enum
{
  __GCONV_IS_LAST = 0x0001,
  __GCONV_IGNORE_ERRORS = 0x0002
};



struct __gconv_step;
struct __gconv_step_data;
struct __gconv_loaded_object;
struct __gconv_trans_data;



typedef int (*__gconv_fct) (struct __gconv_step *, struct __gconv_step_data *,
       __const unsigned char **, __const unsigned char *,
       unsigned char **, size_t *, int, int);


typedef wint_t (*__gconv_btowc_fct) (struct __gconv_step *, unsigned char);


typedef int (*__gconv_init_fct) (struct __gconv_step *);
typedef void (*__gconv_end_fct) (struct __gconv_step *);



typedef int (*__gconv_trans_fct) (struct __gconv_step *,
      struct __gconv_step_data *, void *,
      __const unsigned char *,
      __const unsigned char **,
      __const unsigned char *, unsigned char **,
      size_t *);


typedef int (*__gconv_trans_context_fct) (void *, __const unsigned char *,
       __const unsigned char *,
       unsigned char *, unsigned char *);


typedef int (*__gconv_trans_query_fct) (__const char *, __const char ***,
     size_t *);


typedef int (*__gconv_trans_init_fct) (void **, const char *);
typedef void (*__gconv_trans_end_fct) (void *);

struct __gconv_trans_data
{

  __gconv_trans_fct __trans_fct;
  __gconv_trans_context_fct __trans_context_fct;
  __gconv_trans_end_fct __trans_end_fct;
  void *__data;
  struct __gconv_trans_data *__next;
};



struct __gconv_step
{
  struct __gconv_loaded_object *__shlib_handle;
  __const char *__modname;

  int __counter;

  char *__from_name;
  char *__to_name;

  __gconv_fct __fct;
  __gconv_btowc_fct __btowc_fct;
  __gconv_init_fct __init_fct;
  __gconv_end_fct __end_fct;



  int __min_needed_from;
  int __max_needed_from;
  int __min_needed_to;
  int __max_needed_to;


  int __stateful;

  void *__data;
};



struct __gconv_step_data
{
  unsigned char *__outbuf;
  unsigned char *__outbufend;



  int __flags;



  int __invocation_counter;



  int __internal_use;

  __mbstate_t *__statep;
  __mbstate_t __state;



  struct __gconv_trans_data *__trans;
};



typedef struct __gconv_info
{
  size_t __nsteps;
  struct __gconv_step *__steps;
  __extension__ struct __gconv_step_data __data [];
} *__gconv_t;
# 45 "/usr/include/_G_config.h" 2 3 4
typedef union
{
  struct __gconv_info __cd;
  struct
  {
    struct __gconv_info __cd;
    struct __gconv_step_data __data;
  } __combined;
} _G_iconv_t;

typedef int _G_int16_t __attribute__ ((__mode__ (__HI__)));
typedef int _G_int32_t __attribute__ ((__mode__ (__SI__)));
typedef unsigned int _G_uint16_t __attribute__ ((__mode__ (__HI__)));
typedef unsigned int _G_uint32_t __attribute__ ((__mode__ (__SI__)));
# 33 "/usr/include/libio.h" 2 3 4
# 53 "/usr/include/libio.h" 3 4
# 1 "/usr/lib/gcc/i386-redhat-linux/3.4.3/include/stdarg.h" 1 3 4
# 43 "/usr/lib/gcc/i386-redhat-linux/3.4.3/include/stdarg.h" 3 4
typedef __builtin_va_list __gnuc_va_list;
# 54 "/usr/include/libio.h" 2 3 4
# 166 "/usr/include/libio.h" 3 4
struct _IO_jump_t; struct _IO_FILE;
# 176 "/usr/include/libio.h" 3 4
typedef void _IO_lock_t;





struct _IO_marker {
  struct _IO_marker *_next;
  struct _IO_FILE *_sbuf;



  int _pos;
# 199 "/usr/include/libio.h" 3 4
};


enum __codecvt_result
{
  __codecvt_ok,
  __codecvt_partial,
  __codecvt_error,
  __codecvt_noconv
};
# 267 "/usr/include/libio.h" 3 4
struct _IO_FILE {
  int _flags;




  char* _IO_read_ptr;
  char* _IO_read_end;
  char* _IO_read_base;
  char* _IO_write_base;
  char* _IO_write_ptr;
  char* _IO_write_end;
  char* _IO_buf_base;
  char* _IO_buf_end;

  char *_IO_save_base;
  char *_IO_backup_base;
  char *_IO_save_end;

  struct _IO_marker *_markers;

  struct _IO_FILE *_chain;

  int _fileno;



  int _flags2;

  __off_t _old_offset;



  unsigned short _cur_column;
  signed char _vtable_offset;
  char _shortbuf[1];



  _IO_lock_t *_lock;
# 315 "/usr/include/libio.h" 3 4
  __off64_t _offset;





  void *__pad1;
  void *__pad2;

  int _mode;

  char _unused2[15 * sizeof (int) - 2 * sizeof (void *)];

};


typedef struct _IO_FILE _IO_FILE;


struct _IO_FILE_plus;

extern struct _IO_FILE_plus _IO_2_1_stdin_;
extern struct _IO_FILE_plus _IO_2_1_stdout_;
extern struct _IO_FILE_plus _IO_2_1_stderr_;
# 354 "/usr/include/libio.h" 3 4
typedef __ssize_t __io_read_fn (void *__cookie, char *__buf, size_t __nbytes);







typedef __ssize_t __io_write_fn (void *__cookie, __const char *__buf,
     size_t __n);







typedef int __io_seek_fn (void *__cookie, __off64_t *__pos, int __w);


typedef int __io_close_fn (void *__cookie);
# 406 "/usr/include/libio.h" 3 4
extern int __underflow (_IO_FILE *) __attribute__ ((__nothrow__));
extern int __uflow (_IO_FILE *) __attribute__ ((__nothrow__));
extern int __overflow (_IO_FILE *, int) __attribute__ ((__nothrow__));
extern wint_t __wunderflow (_IO_FILE *) __attribute__ ((__nothrow__));
extern wint_t __wuflow (_IO_FILE *) __attribute__ ((__nothrow__));
extern wint_t __woverflow (_IO_FILE *, wint_t) __attribute__ ((__nothrow__));
# 444 "/usr/include/libio.h" 3 4
extern int _IO_getc (_IO_FILE *__fp) __attribute__ ((__nothrow__));
extern int _IO_putc (int __c, _IO_FILE *__fp) __attribute__ ((__nothrow__));
extern int _IO_feof (_IO_FILE *__fp) __attribute__ ((__nothrow__));
extern int _IO_ferror (_IO_FILE *__fp) __attribute__ ((__nothrow__));

extern int _IO_peekc_locked (_IO_FILE *__fp) __attribute__ ((__nothrow__));





extern void _IO_flockfile (_IO_FILE *) __attribute__ ((__nothrow__));
extern void _IO_funlockfile (_IO_FILE *) __attribute__ ((__nothrow__));
extern int _IO_ftrylockfile (_IO_FILE *) __attribute__ ((__nothrow__));
# 474 "/usr/include/libio.h" 3 4
extern int _IO_vfscanf (_IO_FILE * __restrict, const char * __restrict,
   __gnuc_va_list, int *__restrict) __attribute__ ((__nothrow__));
extern int _IO_vfprintf (_IO_FILE *__restrict, const char *__restrict,
    __gnuc_va_list) __attribute__ ((__nothrow__));
extern __ssize_t _IO_padn (_IO_FILE *, int, __ssize_t) __attribute__ ((__nothrow__));
extern size_t _IO_sgetn (_IO_FILE *, void *, size_t) __attribute__ ((__nothrow__));

extern __off64_t _IO_seekoff (_IO_FILE *, __off64_t, int, int) __attribute__ ((__nothrow__));
extern __off64_t _IO_seekpos (_IO_FILE *, __off64_t, int) __attribute__ ((__nothrow__));

extern void _IO_free_backup_area (_IO_FILE *) __attribute__ ((__nothrow__));
# 73 "/usr/include/stdio.h" 2 3 4
# 86 "/usr/include/stdio.h" 3 4


typedef _G_fpos_t fpos_t;




# 138 "/usr/include/stdio.h" 3 4
# 1 "/usr/include/bits/stdio_lim.h" 1 3 4
# 139 "/usr/include/stdio.h" 2 3 4



extern struct _IO_FILE *stdin;
extern struct _IO_FILE *stdout;
extern struct _IO_FILE *stderr;









extern int remove (__const char *__filename) __attribute__ ((__nothrow__));

extern int rename (__const char *__old, __const char *__new) __attribute__ ((__nothrow__));









extern FILE *tmpfile (void);
# 180 "/usr/include/stdio.h" 3 4
extern char *tmpnam (char *__s) __attribute__ ((__nothrow__));





extern char *tmpnam_r (char *__s) __attribute__ ((__nothrow__));
# 198 "/usr/include/stdio.h" 3 4
extern char *tempnam (__const char *__dir, __const char *__pfx)
     __attribute__ ((__nothrow__)) __attribute__ ((__malloc__));








extern int fclose (FILE *__stream);




extern int fflush (FILE *__stream);

# 223 "/usr/include/stdio.h" 3 4
extern int fflush_unlocked (FILE *__stream);
# 237 "/usr/include/stdio.h" 3 4






extern FILE *fopen (__const char *__restrict __filename,
      __const char *__restrict __modes);




extern FILE *freopen (__const char *__restrict __filename,
        __const char *__restrict __modes,
        FILE *__restrict __stream);
# 264 "/usr/include/stdio.h" 3 4

# 275 "/usr/include/stdio.h" 3 4
extern FILE *fdopen (int __fd, __const char *__modes) __attribute__ ((__nothrow__));
# 296 "/usr/include/stdio.h" 3 4



extern void setbuf (FILE *__restrict __stream, char *__restrict __buf) __attribute__ ((__nothrow__));



extern int setvbuf (FILE *__restrict __stream, char *__restrict __buf,
      int __modes, size_t __n) __attribute__ ((__nothrow__));





extern void setbuffer (FILE *__restrict __stream, char *__restrict __buf,
         size_t __size) __attribute__ ((__nothrow__));


extern void setlinebuf (FILE *__stream) __attribute__ ((__nothrow__));








extern int fprintf (FILE *__restrict __stream,
      __const char *__restrict __format, ...);




extern int printf (__const char *__restrict __format, ...);

extern int sprintf (char *__restrict __s,
      __const char *__restrict __format, ...) __attribute__ ((__nothrow__));





extern int vfprintf (FILE *__restrict __s, __const char *__restrict __format,
       __gnuc_va_list __arg);




extern int vprintf (__const char *__restrict __format, __gnuc_va_list __arg);

extern int vsprintf (char *__restrict __s, __const char *__restrict __format,
       __gnuc_va_list __arg) __attribute__ ((__nothrow__));





extern int snprintf (char *__restrict __s, size_t __maxlen,
       __const char *__restrict __format, ...)
     __attribute__ ((__nothrow__)) __attribute__ ((__format__ (__printf__, 3, 4)));

extern int vsnprintf (char *__restrict __s, size_t __maxlen,
        __const char *__restrict __format, __gnuc_va_list __arg)
     __attribute__ ((__nothrow__)) __attribute__ ((__format__ (__printf__, 3, 0)));

# 390 "/usr/include/stdio.h" 3 4





extern int fscanf (FILE *__restrict __stream,
     __const char *__restrict __format, ...);




extern int scanf (__const char *__restrict __format, ...);

extern int sscanf (__const char *__restrict __s,
     __const char *__restrict __format, ...) __attribute__ ((__nothrow__));

# 432 "/usr/include/stdio.h" 3 4





extern int fgetc (FILE *__stream);
extern int getc (FILE *__stream);





extern int getchar (void);

# 456 "/usr/include/stdio.h" 3 4
extern int getc_unlocked (FILE *__stream);
extern int getchar_unlocked (void);
# 467 "/usr/include/stdio.h" 3 4
extern int fgetc_unlocked (FILE *__stream);











extern int fputc (int __c, FILE *__stream);
extern int putc (int __c, FILE *__stream);





extern int putchar (int __c);

# 500 "/usr/include/stdio.h" 3 4
extern int fputc_unlocked (int __c, FILE *__stream);







extern int putc_unlocked (int __c, FILE *__stream);
extern int putchar_unlocked (int __c);






extern int getw (FILE *__stream);


extern int putw (int __w, FILE *__stream);








extern char *fgets (char *__restrict __s, int __n, FILE *__restrict __stream);






extern char *gets (char *__s);

# 580 "/usr/include/stdio.h" 3 4





extern int fputs (__const char *__restrict __s, FILE *__restrict __stream);





extern int puts (__const char *__s);






extern int ungetc (int __c, FILE *__stream);






extern size_t fread (void *__restrict __ptr, size_t __size,
       size_t __n, FILE *__restrict __stream);




extern size_t fwrite (__const void *__restrict __ptr, size_t __size,
        size_t __n, FILE *__restrict __s);

# 633 "/usr/include/stdio.h" 3 4
extern size_t fread_unlocked (void *__restrict __ptr, size_t __size,
         size_t __n, FILE *__restrict __stream);
extern size_t fwrite_unlocked (__const void *__restrict __ptr, size_t __size,
          size_t __n, FILE *__restrict __stream);








extern int fseek (FILE *__stream, long int __off, int __whence);




extern long int ftell (FILE *__stream);




extern void rewind (FILE *__stream);

# 688 "/usr/include/stdio.h" 3 4






extern int fgetpos (FILE *__restrict __stream, fpos_t *__restrict __pos);




extern int fsetpos (FILE *__stream, __const fpos_t *__pos);
# 711 "/usr/include/stdio.h" 3 4

# 720 "/usr/include/stdio.h" 3 4


extern void clearerr (FILE *__stream) __attribute__ ((__nothrow__));

extern int feof (FILE *__stream) __attribute__ ((__nothrow__));

extern int ferror (FILE *__stream) __attribute__ ((__nothrow__));




extern void clearerr_unlocked (FILE *__stream) __attribute__ ((__nothrow__));
extern int feof_unlocked (FILE *__stream) __attribute__ ((__nothrow__));
extern int ferror_unlocked (FILE *__stream) __attribute__ ((__nothrow__));








extern void perror (__const char *__s);






# 1 "/usr/include/bits/sys_errlist.h" 1 3 4
# 27 "/usr/include/bits/sys_errlist.h" 3 4
extern int sys_nerr;
extern __const char *__const sys_errlist[];
# 750 "/usr/include/stdio.h" 2 3 4




extern int fileno (FILE *__stream) __attribute__ ((__nothrow__));




extern int fileno_unlocked (FILE *__stream) __attribute__ ((__nothrow__));
# 769 "/usr/include/stdio.h" 3 4
extern FILE *popen (__const char *__command, __const char *__modes);





extern int pclose (FILE *__stream);





extern char *ctermid (char *__s) __attribute__ ((__nothrow__));
# 809 "/usr/include/stdio.h" 3 4
extern void flockfile (FILE *__stream) __attribute__ ((__nothrow__));



extern int ftrylockfile (FILE *__stream) __attribute__ ((__nothrow__));


extern void funlockfile (FILE *__stream) __attribute__ ((__nothrow__));
# 836 "/usr/include/stdio.h" 3 4

# 6 "witchel_working_bv_tab.c" 2
# 1 "/usr/include/string.h" 1 3 4
# 28 "/usr/include/string.h" 3 4





# 1 "/usr/lib/gcc/i386-redhat-linux/3.4.3/include/stddef.h" 1 3 4
# 34 "/usr/include/string.h" 2 3 4




extern void *memcpy (void *__restrict __dest,
       __const void *__restrict __src, size_t __n)
     __attribute__ ((__nothrow__)) __attribute__ ((__nonnull__ (1, 2)));


extern void *memmove (void *__dest, __const void *__src, size_t __n)
     __attribute__ ((__nothrow__)) __attribute__ ((__nonnull__ (1, 2)));






extern void *memccpy (void *__restrict __dest, __const void *__restrict __src,
        int __c, size_t __n)
     __attribute__ ((__nothrow__)) __attribute__ ((__nonnull__ (1, 2)));





extern void *memset (void *__s, int __c, size_t __n) __attribute__ ((__nothrow__)) __attribute__ ((__nonnull__ (1)));


extern int memcmp (__const void *__s1, __const void *__s2, size_t __n)
     __attribute__ ((__nothrow__)) __attribute__ ((__pure__)) __attribute__ ((__nonnull__ (1, 2)));


extern void *memchr (__const void *__s, int __c, size_t __n)
      __attribute__ ((__nothrow__)) __attribute__ ((__pure__)) __attribute__ ((__nonnull__ (1)));

# 82 "/usr/include/string.h" 3 4


extern char *strcpy (char *__restrict __dest, __const char *__restrict __src)
     __attribute__ ((__nothrow__)) __attribute__ ((__nonnull__ (1, 2)));

extern char *strncpy (char *__restrict __dest,
        __const char *__restrict __src, size_t __n)
     __attribute__ ((__nothrow__)) __attribute__ ((__nonnull__ (1, 2)));


extern char *strcat (char *__restrict __dest, __const char *__restrict __src)
     __attribute__ ((__nothrow__)) __attribute__ ((__nonnull__ (1, 2)));

extern char *strncat (char *__restrict __dest, __const char *__restrict __src,
        size_t __n) __attribute__ ((__nothrow__)) __attribute__ ((__nonnull__ (1, 2)));


extern int strcmp (__const char *__s1, __const char *__s2)
     __attribute__ ((__nothrow__)) __attribute__ ((__pure__)) __attribute__ ((__nonnull__ (1, 2)));

extern int strncmp (__const char *__s1, __const char *__s2, size_t __n)
     __attribute__ ((__nothrow__)) __attribute__ ((__pure__)) __attribute__ ((__nonnull__ (1, 2)));


extern int strcoll (__const char *__s1, __const char *__s2)
     __attribute__ ((__nothrow__)) __attribute__ ((__pure__)) __attribute__ ((__nonnull__ (1, 2)));

extern size_t strxfrm (char *__restrict __dest,
         __const char *__restrict __src, size_t __n)
     __attribute__ ((__nothrow__)) __attribute__ ((__nonnull__ (2)));

# 130 "/usr/include/string.h" 3 4
extern char *strdup (__const char *__s)
     __attribute__ ((__nothrow__)) __attribute__ ((__malloc__)) __attribute__ ((__nonnull__ (1)));
# 165 "/usr/include/string.h" 3 4


extern char *strchr (__const char *__s, int __c)
     __attribute__ ((__nothrow__)) __attribute__ ((__pure__)) __attribute__ ((__nonnull__ (1)));

extern char *strrchr (__const char *__s, int __c)
     __attribute__ ((__nothrow__)) __attribute__ ((__pure__)) __attribute__ ((__nonnull__ (1)));

# 181 "/usr/include/string.h" 3 4



extern size_t strcspn (__const char *__s, __const char *__reject)
     __attribute__ ((__nothrow__)) __attribute__ ((__pure__)) __attribute__ ((__nonnull__ (1, 2)));


extern size_t strspn (__const char *__s, __const char *__accept)
     __attribute__ ((__nothrow__)) __attribute__ ((__pure__)) __attribute__ ((__nonnull__ (1, 2)));

extern char *strpbrk (__const char *__s, __const char *__accept)
     __attribute__ ((__nothrow__)) __attribute__ ((__pure__)) __attribute__ ((__nonnull__ (1, 2)));

extern char *strstr (__const char *__haystack, __const char *__needle)
     __attribute__ ((__nothrow__)) __attribute__ ((__pure__)) __attribute__ ((__nonnull__ (1, 2)));



extern char *strtok (char *__restrict __s, __const char *__restrict __delim)
     __attribute__ ((__nothrow__)) __attribute__ ((__nonnull__ (2)));




extern char *__strtok_r (char *__restrict __s,
    __const char *__restrict __delim,
    char **__restrict __save_ptr)
     __attribute__ ((__nothrow__)) __attribute__ ((__nonnull__ (2, 3)));

extern char *strtok_r (char *__restrict __s, __const char *__restrict __delim,
         char **__restrict __save_ptr)
     __attribute__ ((__nothrow__)) __attribute__ ((__nonnull__ (2, 3)));
# 240 "/usr/include/string.h" 3 4


extern size_t strlen (__const char *__s)
     __attribute__ ((__nothrow__)) __attribute__ ((__pure__)) __attribute__ ((__nonnull__ (1)));

# 254 "/usr/include/string.h" 3 4


extern char *strerror (int __errnum) __attribute__ ((__nothrow__));

# 281 "/usr/include/string.h" 3 4
extern char *strerror_r (int __errnum, char *__buf, size_t __buflen)
     __attribute__ ((__nothrow__)) __attribute__ ((__nonnull__ (2)));





extern void __bzero (void *__s, size_t __n) __attribute__ ((__nothrow__)) __attribute__ ((__nonnull__ (1)));



extern void bcopy (__const void *__src, void *__dest, size_t __n)
     __attribute__ ((__nothrow__)) __attribute__ ((__nonnull__ (1, 2)));


extern void bzero (void *__s, size_t __n) __attribute__ ((__nothrow__)) __attribute__ ((__nonnull__ (1)));


extern int bcmp (__const void *__s1, __const void *__s2, size_t __n)
     __attribute__ ((__nothrow__)) __attribute__ ((__pure__)) __attribute__ ((__nonnull__ (1, 2)));


extern char *index (__const char *__s, int __c)
     __attribute__ ((__nothrow__)) __attribute__ ((__pure__)) __attribute__ ((__nonnull__ (1)));


extern char *rindex (__const char *__s, int __c)
     __attribute__ ((__nothrow__)) __attribute__ ((__pure__)) __attribute__ ((__nonnull__ (1)));



extern int ffs (int __i) __attribute__ ((__nothrow__)) __attribute__ ((__const__));
# 325 "/usr/include/string.h" 3 4
extern int strcasecmp (__const char *__s1, __const char *__s2)
     __attribute__ ((__nothrow__)) __attribute__ ((__pure__)) __attribute__ ((__nonnull__ (1, 2)));


extern int strncasecmp (__const char *__s1, __const char *__s2, size_t __n)
     __attribute__ ((__nothrow__)) __attribute__ ((__pure__)) __attribute__ ((__nonnull__ (1, 2)));
# 348 "/usr/include/string.h" 3 4
extern char *strsep (char **__restrict __stringp,
       __const char *__restrict __delim)
     __attribute__ ((__nothrow__)) __attribute__ ((__nonnull__ (1, 2)));
# 426 "/usr/include/string.h" 3 4

# 7 "witchel_working_bv_tab.c" 2
# 1 "/usr/include/assert.h" 1 3 4
# 65 "/usr/include/assert.h" 3 4



extern void __assert_fail (__const char *__assertion, __const char *__file,
      unsigned int __line, __const char *__function)
     __attribute__ ((__nothrow__)) __attribute__ ((__noreturn__));


extern void __assert_perror_fail (int __errnum, __const char *__file,
      unsigned int __line,
      __const char *__function)
     __attribute__ ((__nothrow__)) __attribute__ ((__noreturn__));




extern void __assert (const char *__assertion, const char *__file, int __line)
     __attribute__ ((__nothrow__)) __attribute__ ((__noreturn__));



# 8 "witchel_working_bv_tab.c" 2
# 1 "mmp_tab.h" 1
# 19 "mmp_tab.h"
struct mmpt;

typedef unsigned int mmpt_t;






struct mmpt* mmpt_rle_alloc();
struct mmpt* mmpt_bv_alloc();
struct mmpt* mmpt_stack_alloc();
# 45 "mmp_tab.h"
int mmpt_insert(struct mmpt*, unsigned long base, unsigned long len,
                unsigned int prot);

int mmpt_delete(struct mmpt*, unsigned long base, unsigned long len);


mmpt_t mmpt_get_prot(struct mmpt*, unsigned long base);

mmpt_t mmpt_get_entry(struct mmpt*, unsigned long base);





unsigned int mmpt_get_len(struct mmpt* mmpt, unsigned long base);



unsigned long mmpt_get_base(struct mmpt* mmpt, unsigned long base);

int mmpt_print(struct mmpt* mmpt, char* buf, int buflen, unsigned long base,
              unsigned long len);

int mmpt_print_stats(struct mmpt* mmpt, char* buf, int len);


int mmpt_print_entry(struct mmpt* mmpt, unsigned long addr);

void mmpt_free(struct mmpt*);


void mmpt_verify_overlap(struct mmpt*, unsigned long base, unsigned long len);
# 9 "witchel_working_bv_tab.c" 2
# 32 "witchel_working_bv_tab.c"
static void* xmalloc(size_t size) { return malloc(size); }
static void xfree(void* ptr) { free(ptr); }




typedef unsigned int tab_t;
enum mmpt_type {
   MMPT_RLE,
   MMPT_BV,
   MMPT_STACK,
};
struct mmpt {
   int type;
   tab_t* tab;

   unsigned long index_shift[3];
   unsigned long index_mask[3];
   unsigned long lg_num_subblock[3];
};

void __error__(){
ERROR: goto ERROR;
}

void __BLAST___error__(){
BERROR: goto BERROR;
}




static tab_t bv_mask[] = { ~(0x3 << 30),
                           ~(0x3 << 28), ~(0x3 << 26), ~(0x3 << 24),
                           ~(0x3 << 22), ~(0x3 << 20), ~(0x3 << 18),
                           ~(0x3 << 16), ~(0x3 << 14), ~(0x3 << 12),
                           ~(0x3 << 10), ~(0x3 << 8), ~(0x3 << 6),
                           ~(0x3 << 4), ~(0x3 << 2), ~(0x3 << 0),
};


static unsigned long round_up(unsigned long addr, int base) {
   unsigned long flat_addr = addr & ~(base-1);
   if(flat_addr != addr) return flat_addr + base;
   return flat_addr;
}

static unsigned int tab_nentries(struct mmpt* mmpt, int level) {
   return mmpt->index_mask[level] + 1;
}


static unsigned long tab_len(struct mmpt* mmpt, int level) {
   if(level == 0) return 0xFFFFFFFF;
   if(level == 3) return 1 << mmpt->index_shift[2];
   return tab_nentries(mmpt, level) * tab_len(mmpt, level + 1);
}
static inline unsigned long tab_base(struct mmpt* mmpt, unsigned long base, int level) {
   if(level == 0) return 0;
   base >>= mmpt->index_shift[level-1];
   return base << mmpt->index_shift[level-1];
}
static inline unsigned long tab_addr(struct mmpt* mmpt, unsigned long base, int idx,
                                     int level) {
   return tab_base(mmpt, base, level) + idx * tab_len(mmpt, level+1);
}
static inline unsigned long make_addr(struct mmpt* mmpt, int i, int j, int k) {
   return i * tab_len(mmpt, 1) + j * tab_len(mmpt, 2) + k * tab_len(mmpt, 3);
}

static unsigned long subblock_len(struct mmpt* mmpt, int lev) {
   return (1UL << (mmpt->index_shift[lev] - mmpt->lg_num_subblock[lev]));
}

static int entry_prot(struct mmpt* mmpt, tab_t entry, int idx) {
   switch(mmpt->type) {
   case MMPT_RLE:
      break;
   case MMPT_BV:


      ((void) ((idx < 16) ? 0 : (__assert_fail ("idx < 16", "witchel_working_bv_tab.c", 113, __PRETTY_FUNCTION__), 0)));
      if (idx >= 16) { __error__();};

      return (entry >> (30 - 2*idx)) & 0x3;
      break;
   case MMPT_STACK:
      break;
   }
   ((void) ((0) ? 0 : (__assert_fail ("0", "witchel_working_bv_tab.c", 121, __PRETTY_FUNCTION__), 0)));
   __error__(); //SAFE
   return -1;
}
static int entry_nonnull_data(struct mmpt* mmpt, tab_t entry, int level) {
   switch(mmpt->type) {
   case MMPT_RLE:
      break;
   case MMPT_BV:
      if(level < 2) return ((entry >> 1) != 0);
      return entry != 0;
      break;
   case MMPT_STACK:
      break;
   }
   ((void) ((0) ? 0 : (__assert_fail ("0", "witchel_working_bv_tab.c", 136, __PRETTY_FUNCTION__), 0)));
   __error__(); //SAFE
   return -1;
}
static int interval_spans_entry(struct mmpt* mmpt, unsigned long p2base,
                                unsigned long p2len, int lev) {
   return ((p2base & (1UL << mmpt->index_shift[1])-1) == 0
           && p2len >= (1UL << mmpt->index_shift[lev]));
}

static int uentry_is_data(struct mmpt* mmpt, tab_t entry) {
   return ((entry&1) == 1);
}
static int make_idx(struct mmpt* mmpt, unsigned long base, int lev) {
   return ((base >> mmpt->index_shift[lev]) & mmpt->index_mask[lev]);
}
static int make_entry_idx(struct mmpt* mmpt, unsigned long base, int lev) {
   return ((base >> (mmpt->index_shift[lev] - mmpt->lg_num_subblock[lev]))
           & ((1 << mmpt->lg_num_subblock[lev]) - 1));
}

static tab_t* alloc_table(struct mmpt* mmpt, int level) {
   tab_t* tab = (tab_t*)xmalloc(tab_nentries(mmpt, level) * sizeof(tab_t));
   memset(tab, 0, tab_nentries(mmpt, level) * sizeof(*tab));
}
static void table_free(struct mmpt* mmpt, tab_t* tab, int lev) {
   int i;
   ((void) ((lev > 0) ? 0 : (__assert_fail ("lev > 0", "witchel_working_bv_tab.c", 163, __PRETTY_FUNCTION__), 0)));
   if (lev <= 0) __error__(); //SAFE

   if(lev == 1) {

      for(i = 0; i < tab_nentries(mmpt, lev); ++i) {
         if(uentry_is_data(mmpt, tab[i]) == 0) {
            xfree((void*)tab[i]);
         }
      }
   }
   xfree(tab);
}

static int get_level(struct mmpt* mmpt, unsigned long p2base, unsigned long p2len) {
   if((p2base & (subblock_len(mmpt, 0)-1)) == 0
      && p2len >= subblock_len(mmpt, 0)) return 0;
   if((p2base & ((1UL << mmpt->index_shift[1])-1)) == 0
      && p2len >= subblock_len(mmpt, 1)) return 1;
   return 2;
}
static tab_t* get_mmpt_data_table(struct mmpt* mmpt, unsigned long p2base,
                                  unsigned long p2len, int allocate_ok) {
   int lev = get_level(mmpt, p2base, p2len);
   if(lev == 0) {
      if(uentry_is_data(mmpt, mmpt->tab[make_idx(mmpt, p2base, 0)])) {




         if(interval_spans_entry(mmpt, p2base, p2len, 0)) {
            table_free(mmpt, (tab_t*)mmpt->tab[make_idx(mmpt, p2base, 0)], 1);
         }
      }
      return mmpt->tab;
   } else if(lev == 1) {
      tab_t root_entry = mmpt->tab[make_idx(mmpt, p2base, 0)];
      if(root_entry == 0) {
         if(!allocate_ok) return ((void *)0);

         tab_t* tab = alloc_table(mmpt, 1);
         root_entry = mmpt->tab[make_idx(mmpt, p2base, 0)] = (tab_t)tab;
      } else if(uentry_is_data(mmpt, root_entry)) {

         ((void) ((0) ? 0 : (__assert_fail ("0", "witchel_working_bv_tab.c", 207, __PRETTY_FUNCTION__), 0)));
  __error__();
      }
      return (tab_t*)root_entry;
   }
   tab_t root_entry = mmpt->tab[make_idx(mmpt, p2base, 0)];
   if(root_entry == 0) {
      if(!allocate_ok) return ((void *)0);

      tab_t* tab = alloc_table(mmpt, 1);
      root_entry = mmpt->tab[make_idx(mmpt, p2base, 0)] = (tab_t)tab;
   } else if(uentry_is_data(mmpt, root_entry)) {

      ((void) ((0) ? 0 : (__assert_fail ("0", "witchel_working_bv_tab.c", 220, __PRETTY_FUNCTION__), 0)));
      __error__();
   }
   tab_t* first_tab = (tab_t*)root_entry;
   tab_t first_entry = first_tab[make_idx(mmpt, p2base, 1)];
   if(first_entry == 0) {
      if(!allocate_ok) return ((void *)0);

      tab_t* tab = alloc_table(mmpt, 2);
      first_entry = first_tab[make_idx(mmpt, p2base, 1)] = (tab_t)tab;
   } else if(uentry_is_data(mmpt, first_entry)) {

      ((void) ((0) ? 0 : (__assert_fail ("0", "witchel_working_bv_tab.c", 232, __PRETTY_FUNCTION__), 0)));
      __error__();
   }
   return (tab_t*)first_entry;
}

static unsigned int make_entry(struct mmpt* mmpt, unsigned long base,
                               unsigned long len, unsigned int prot,
                               int lev, tab_t* _entry) {
   tab_t entry = *_entry;
   int entry_len = 0;
   int i;
   ((void) (((prot & 0x3) == prot) ? 0 : (__assert_fail ("(prot & 0x3) == prot", "witchel_working_bv_tab.c", 244, __PRETTY_FUNCTION__), 0)));
   if ((prot & 0x3) != prot) __error__();

   switch(mmpt->type) {
   case MMPT_RLE:

      break;
   case MMPT_BV: {
      for(i = make_entry_idx(mmpt, base, lev);
          i < (1 << mmpt->lg_num_subblock[lev])
             && len >= subblock_len(mmpt, lev);

          ++i) {

         if(lev < 2 && entry == 0) entry |= 1;
         ((void) ((lev == 2 || uentry_is_data(mmpt, entry)) ? 0 : (__assert_fail ("lev == 2 || uentry_is_data(mmpt, entry)", "witchel_working_bv_tab.c", 259, __PRETTY_FUNCTION__), 0)));
         if (lev == 2 || uentry_is_data(mmpt, entry)){}
  else {__error__();};


  entry = (entry & bv_mask[i]) | (prot << (30 - (2 * i)));
         entry_len += subblock_len(mmpt, lev);
         len -= subblock_len(mmpt, lev);
         if(len == 0) break;
      }
   }
      break;
   case MMPT_STACK:
      break;
   }
   *_entry = entry;
   return entry_len;
}
static void mmpt_insert_pwr2(struct mmpt* mmpt, unsigned long p2base,
                             unsigned long p2len, unsigned int prot,
                             int allocate_ok) {
   printf("INSERT %d (%#x) %d\n", p2base, p2base, p2len);
   while(p2len) {
      unsigned int idx;
      unsigned int len = 0;
      tab_t entry;
      tab_t* tab = get_mmpt_data_table(mmpt, p2base, p2len, allocate_ok);
      if(tab) {
         idx = make_idx(mmpt, p2base, get_level(mmpt, p2base, p2len));
         entry = tab[idx];
         len = make_entry(mmpt, p2base, p2len, prot, get_level(mmpt, p2base, p2len), &entry);
         tab[idx] = entry;
      }

      p2len -= len;
      p2base += len;
   }
}

static void
look_for_nonzero(struct mmpt* mmpt, tab_t* tab, int level, int* nonzero) {
   unsigned int idx;
   for(idx = 0; idx < tab_nentries(mmpt, level); ++idx) {
      if((level == 2 && tab[idx] != 0)
         || (level != 2 && uentry_is_data(mmpt, tab[idx]))) {
         *nonzero |= 1;
         break;
      }
      if(level < 2 && tab[idx] && !uentry_is_data(mmpt, tab[idx])) {

         look_for_nonzero(mmpt, (tab_t*)tab[idx], level + 1, nonzero);
      }
   }
}




static void
_mmpt_insert(struct mmpt* mmpt, unsigned long base, unsigned long* len,
             int prot, tab_t* tab, int level, int* nonzero,
             int allocate_ok, char* op_str) {
   unsigned int idx;
   tab_t entry;
   if(*len == 0) return;




   idx = make_idx(mmpt, base, level);
   if(level < 2
      && base == tab_base(mmpt, base, level + 1)
      && *len >= tab_len(mmpt, level + 1)) {

      unsigned int entry_len;



      if(tab[idx] && !uentry_is_data(mmpt, tab[idx])) {


         look_for_nonzero(mmpt, (tab_t*)tab[idx], level, nonzero);

         table_free(mmpt, (void*)tab[idx], level + 1);

         tab[idx] = 0;
      }
      entry = tab[idx];
      entry_len = make_entry(mmpt, base, *len, prot, level, &entry);
      tab[idx] = entry;
      *len -= entry_len;
      base += entry_len;

      _mmpt_insert(mmpt, base, len, prot, mmpt->tab, 0, nonzero, allocate_ok,
                   op_str);
   } else if(level < 2 && tab[idx] && !uentry_is_data(mmpt, tab[idx])) {







      _mmpt_insert(mmpt, base, len, prot, (tab_t*)tab[idx], level + 1, nonzero,
                   allocate_ok, op_str);
   } else if(level < 2

             && ((base & (subblock_len(mmpt, level)-1)) != 0
                 || *len < subblock_len(mmpt, level))
      ){


      unsigned long upper_data_entry = tab[idx];
      unsigned int i;
# 381 "witchel_working_bv_tab.c"
      *nonzero |= (tab[idx] != 0);
      if(allocate_ok) {
         unsigned long sub_len;
         tab[idx] = (tab_t)xmalloc(tab_nentries(mmpt, level + 1)
                                   * sizeof(*mmpt->tab));

         memset((tab_t*)tab[idx], 0, tab_nentries(mmpt, level + 1)
                                   * sizeof(*mmpt->tab));

         for(i = 0; i < 1<<mmpt->lg_num_subblock[level]; ++i) {






            sub_len = subblock_len(mmpt, level);
            _mmpt_insert(mmpt,
                         tab_base(mmpt, base, level+1)
                         + i * subblock_len(mmpt, level),
                         &sub_len,
                         entry_prot(mmpt, upper_data_entry, i),
                         (tab_t*)tab[idx], level + 1, nonzero, allocate_ok, "FILL");
            ((void) ((sub_len == 0) ? 0 : (__assert_fail ("sub_len == 0", "witchel_working_bv_tab.c", 404, __PRETTY_FUNCTION__), 0)));
     if (sub_len != 0) __BLAST___error__(); //SAFE
         }

         _mmpt_insert(mmpt, base, len, prot, (tab_t*)tab[idx], level + 1, nonzero,
                      allocate_ok, op_str);
      } else {
         unsigned int tlen = tab_len(mmpt, level + 1);






         if(tab[idx] != 0) {


            ((void) ((0) ? 0 : (__assert_fail ("0", "witchel_working_bv_tab.c", 421, __PRETTY_FUNCTION__), 0)));
     __error__();
         }

         if(*len < tlen) return;
         *len -= tlen;
         _mmpt_insert(mmpt, tab_addr(mmpt, base, idx+1, level), len, prot,
                      mmpt->tab, 0, nonzero, allocate_ok, op_str);
      }
   } else {






      for(; *len >= subblock_len(mmpt, level)
             && idx < tab_nentries(mmpt, level); idx++) {
         int entry_len;
         *nonzero |= (tab[idx] != 0);
         entry = tab[idx];
         entry_len = make_entry(mmpt, base, *len, prot, level, &entry);
         tab[idx] = entry;
         *len -= entry_len;
         base += entry_len;


      }

      _mmpt_insert(mmpt, base, len, prot, mmpt->tab, 0, nonzero, allocate_ok, op_str);
   }
}



static void next_pwr2_seg(unsigned long *base , unsigned long *len ,
                          unsigned long *p2base ,unsigned long *p2len ) {
   unsigned long lg_len = 1;

   *p2base = *base;

   if((*base & 0x1) != 0 || *len == 0) {
      *p2len = 0;
      return;
   }


   while((*base & ((1UL<<lg_len)-1)) == 0
         && *len >= (1UL<<lg_len)) {
      lg_len++;
   }
   lg_len--;
   *p2len = (1UL << lg_len);
   *len -= *p2len;
   *base += *p2len;
}

static int real_mmpt_insert(struct mmpt* mmpt, unsigned long base, unsigned long len,
                            unsigned int prot, int allocate_ok) {


   len += (base&0x3);
   base &= ~0x3;
   len = round_up(len, 4);

   while(len) {
      unsigned long p2base = 0;
      unsigned long p2len = 0;
      next_pwr2_seg(&base, &len, &p2base, &p2len);
      mmpt_insert_pwr2(mmpt, p2base, p2len, prot, allocate_ok);
   }
}

int mmpt_insert(struct mmpt* mmpt, unsigned long base, unsigned long len,
                unsigned int prot) {

   int nonzero = 0;
   _mmpt_insert(mmpt, base, &len, prot, mmpt->tab, 0, &nonzero, 1, "CALL");
   return nonzero;
}

int mmpt_delete(struct mmpt* mmpt, unsigned long base, unsigned long len) {

   int nonzero = 0;
   _mmpt_insert(mmpt, base, &len, 0, mmpt->tab, 0, &nonzero, 1, "CALL");
   return nonzero;
}

static char tab_data_buf[128];
static char* perm_str[] = {"- ", "R ", "X ", "W "};
static char* tab_data_str(struct mmpt* mmpt, tab_t entry, int lev) {
   int i;
   int lim = 128;
   int bw;
   char* str = tab_data_buf;
   switch(mmpt->type) {
   case MMPT_RLE:
      break;
   case MMPT_BV:

      ((void) ((lev == 2 || uentry_is_data(mmpt, entry)) ? 0 : (__assert_fail ("lev == 2 || uentry_is_data(mmpt, entry)", "witchel_working_bv_tab.c", 521, __PRETTY_FUNCTION__), 0)));
      if (lev == 2 || uentry_is_data(mmpt, entry)){}
      else { __error__();}

      for(i = 0; i < (1<<mmpt->lg_num_subblock[lev]); ++i) {
         bw = snprintf(str, lim, "%s",
                       perm_str[entry_prot(mmpt, entry, i)]);
         lim -= bw; str += bw;
      }
      break;
   case MMPT_STACK:
      break;
   }
   return tab_data_buf;
}


int mmpt_print(struct mmpt* mmpt, char* buf, int _strlen, unsigned long base,
               unsigned long len) {
   int strlen = _strlen;
   int bw;
   unsigned int i;
   unsigned long flags;
   flags=flags;;
   bw = snprintf(buf, strlen,
                 "TABLE between %#x and %#x len %u (%#x)\n",
                 base, base + len, len, len);
   strlen -= bw;
   buf += bw;
   for(i = 0; i < tab_nentries(mmpt, 0); ++i) {
      if(mmpt->tab[i] && !uentry_is_data(mmpt, mmpt->tab[i])) {
         unsigned int j;
         tab_t* tab1 = (tab_t*)mmpt->tab[i];
         for(j = 0; j < tab_nentries(mmpt, 1); ++j) {
            unsigned long jaddr = make_addr(mmpt, i, j, 0);
            if(tab1[j] && !uentry_is_data(mmpt, tab1[j])) {
               unsigned int k;
               tab_t *tab2 = (tab_t*)tab1[j];
               for(k = 0; k < tab_nentries(mmpt, 2); ++k) {
                  unsigned long kaddr = make_addr(mmpt, i, j, k);



                  if((k == 0 || entry_nonnull_data(mmpt, tab2[k], 2))
                     && kaddr >= base
                     && kaddr < base + len
                     ) {
                     bw = snprintf(buf, strlen,
                                   "(i=%3d,j=%3d,k=%3d) %#9lx: %s\n",
                                   i, j, k, kaddr, tab_data_str(mmpt,tab2[k], 2));
                     strlen -= bw;
                     buf += bw;
                     if(strlen <= 0) goto done;
                  }
               }
            } else if(uentry_is_data(mmpt, tab1[j])
                      && (j == 0 || entry_nonnull_data(mmpt, tab1[j], 1))
                      && jaddr >= base
                      && jaddr < base + len
               ) {
               bw = snprintf(buf, strlen, "(i=%3d,j=%3d      ) %#9lx: %s\n",
                             i, j, jaddr, tab_data_str(mmpt, tab1[j], 1));
               strlen -= bw;
               buf += bw;
               if(strlen <= 0) goto done;
            }
         }
      } else if(uentry_is_data(mmpt, mmpt->tab[i])
                && (i == 0 || entry_nonnull_data(mmpt, mmpt->tab[i], 0))
         ) {
         bw = snprintf(buf, strlen, "(i=%3d            ) %#9lx: %s\n",
                       i, make_addr(mmpt, i, 0, 0),
                       tab_data_str(mmpt, mmpt->tab[i], 0));
         strlen -= bw;
         buf += bw;
         if(strlen <= 0) goto done;
      }
   }
done:
   ;
   return _strlen - strlen;

}

struct mmpt* mmpt_bv_alloc() {
   struct mmpt* mmpt = (struct mmpt*)xmalloc(sizeof(struct mmpt));
   memset(mmpt, 0, sizeof(*mmpt));
   mmpt->type = MMPT_BV;
   mmpt->index_shift[0] = 22; mmpt->index_mask[0] = 0x3FF;
   mmpt->index_shift[1] = 12; mmpt->index_mask[1] = 0x3FF;
   mmpt->index_shift[2] = 6; mmpt->index_mask[2] = 0x3F;

   mmpt->lg_num_subblock[0] = 3;
   mmpt->lg_num_subblock[1] = 3;
   mmpt->lg_num_subblock[2] = 4;


   mmpt->tab = (tab_t*)xmalloc(tab_nentries(mmpt, 0) * sizeof(*mmpt->tab));
   memset(mmpt->tab, 0, tab_nentries(mmpt,0) * sizeof(*mmpt->tab));
   return mmpt;
}

char main_buf[1<<22];
int
main() {
   struct mmpt* mmpt = mmpt_bv_alloc();


   mmpt_insert(mmpt, 0x4, 100, 0x1);
   mmpt_insert(mmpt, 60, 8, 0x2);

   mmpt_insert(mmpt, 6*(1<<12) + (1<<9), (1<<9), 0x3);
   mmpt_insert(mmpt, 7*(1<<12) + 7*(1<<9), 2*(1<<9), 0x2);
   mmpt_insert(mmpt, 7*(1<<12) + (1<<9), 2*(1<<9), 0x1);

   mmpt_insert(mmpt, 6*(1<<22) + (1<<19), (1<<19), 0x3);
   mmpt_insert(mmpt, 7*(1<<22) + 7*(1<<19), 2*(1<<19), 0x2);

   mmpt_insert(mmpt, 9*(1<<12) + 6*(1<<9), 2*(1<<9)+4, 0x2);

    mmpt_insert(mmpt, 11*(1<<12) + 6*(1<<9)+4, 2*(1<<9), 0x3);


   mmpt_insert(mmpt, 11*(1<<22) + 6*(1<<19), 2*(1<<9), 0x3);
   mmpt_insert(mmpt, 11*(1<<22) + 7*(1<<19), 4, 0x1);

   mmpt_insert(mmpt, 11*(1<<22), (1<<12) + (1<<9) + 4, 0x2);

   mmpt_print(mmpt, main_buf, 1<<22, 0, 0xFFFFFFFF);
   printf("%s\n", main_buf);

   mmpt_insert(mmpt, 11*(1<<22), (1<<22) + 4, 0x1);

   mmpt_delete(mmpt, 0xbd00 - 4, 9*(1<<6) + 8);

   mmpt_delete(mmpt, 7*(1<<12), 2*(1<<9));

   mmpt_delete(mmpt, 7*(1<<12) + 56 * (1<<6), 4);


   mmpt_insert(mmpt, 13*(1<<22) + 4, (1<<22), 0x2);

   mmpt_print(mmpt, main_buf, 1<<22, 0, 0xFFFFFFFF);
   printf("%s\n", main_buf);
   return 0;
}
