/* XPM */
static char *left-reg-arrow[] = {
/* width height num_colors chars_per_pixel */
"    28    28      128            2",
/* colors */
".. c #000000",
".# c #010100",
".a c #010101",
".b c #010102",
".c c #010110",
".d c #020103",
".e c #020204",
".f c #020210",
".g c #030201",
".h c #030207",
".i c #030304",
".j c #030305",
".k c #030310",
".l c #040303",
".m c #040405",
".n c #040411",
".o c #05050e",
".p c #050511",
".q c #050581",
".r c #060200",
".s c #060629",
".t c #070707",
".u c #070712",
".v c #0a0909",
".w c #0a0a81",
".x c #0c0c0d",
".y c #0e0e0e",
".z c #0e0e37",
".A c #0f0600",
".B c #121212",
".C c #121224",
".D c #131313",
".E c #131382",
".F c #140800",
".G c #171768",
".H c #181883",
".I c #1a0b01",
".J c #1a1a1a",
".K c #1c1c35",
".L c #1e1e85",
".M c #222286",
".N c #242474",
".O c #261001",
".P c #28286c",
".Q c #282889",
".R c #2b1201",
".S c #2b2b8a",
".T c #2c1200",
".U c #2e2e2e",
".V c #303030",
".W c #35358f",
".X c #361600",
".Y c #36367c",
".Z c #363690",
".0 c #383838",
".1 c #3c3c75",
".2 c #3d3d3d",
".3 c #3f3f96",
".4 c #414141",
".5 c #421a00",
".6 c #424299",
".7 c #464646",
".8 c #474787",
".9 c #47479c",
"#. c #49499e",
"## c #4e4ea2",
"#a c #5050a4",
"#b c #5353a6",
"#c c #5555a7",
"#d c #562200",
"#e c #5757a7",
"#f c #5858aa",
"#g c #5a2400",
"#h c #666666",
"#i c #6c6c6c",
"#j c #702d00",
"#k c #757575",
"#l c #793000",
"#m c #7c7c7c",
"#n c #7d7d7d",
"#o c #818181",
"#p c #823400",
"#q c #833400",
"#r c #838383",
"#s c #848484",
"#t c #858585",
"#u c #878787",
"#v c #8b8b8b",
"#w c #8e8e8e",
"#x c #8f3900",
"#y c #923b00",
"#z c #949494",
"#A c #973c00",
"#B c #979797",
"#C c #9b9b9b",
"#D c #9e9e9e",
"#E c #a0a0a0",
"#F c #a4a4a4",
"#G c #a8a8a8",
"#H c #acacac",
"#I c #ae4600",
"#J c #afafaf",
"#K c #b3b3b3",
"#L c #b44800",
"#M c #b64900",
"#N c #b7b7b7",
"#O c #bababa",
"#P c #bcbcbc",
"#Q c #be4c00",
"#R c #bebebe",
"#S c #bfbfbf",
"#T c #c0c0c0",
"#U c #c14d00",
"#V c #c2c2c2",
"#W c #c3c3c3",
"#X c #cc5100",
"#Y c #d75600",
"#Z c #d95700",
"#0 c #db5700",
"#1 c #e45b00",
"#2 c #ec5f00",
"#3 c #ed5f00",
"#4 c #f06000",
"#5 c #f66300",
"#6 c #f86300",
"#7 c #fc6500",
"#8 c #fd6500",
"#9 c #ff6600",
/* pixels */
"#o#o#o#o#o#o#o#o#o#o#o#o#o#o#o#o#o#o#o#o#o#o#o#o#o#o#o#o",
"#W#W#W#W#W#W#W#W#W#W#W#W#W#W#W#W#W.x#W#W#W#W#W#W#W#W#W#W",
"#V#V#V#V#V#V#V#V#V#V#V#V#V#V#V#V.a.m#V#V#V#V#V#V#V#V#V#V",
"#V#V#V#V#V#V#V#V#V#V#V#V#V#V#V.D#e.m#V#V#V#V#V#V#V#V#V#V",
"#T#T#T#T#T#T.2.V#D#T#T#T#T#T#i.1#f.m#T#T#T#T#T#T#T#T#T#T",
"#S#S#S#S.g.X#p#A#d..#S#S#S#S.C#b#b.m#S#S#S#S#S#S#S#S#S#S",
"#R#R#R..#L#L#L#L#L#L..#R#R..######.m#R#R#R#R#R#R#R#R#R#R",
"#P#P.v#Q#Q#Q#Q#Q#Q#Q#Q.....9.9.9.9.m#P#P#P#P#P#P#P#P#P#P",
"#O#O#g#X#X#X#X#X#X#X#X.O.3.3.3.3.3.b.U.U.U.U.U.U.U.U.U#O",
"#N.B#0#0#0#0#0#0#0#0#x.P.Z.Z.Z.Z.Z.P.P.P.P.P.P.P.P.P.o#N",
"#K#j#3#3#3#3#3#3#3.R.Q.Q.Q.Q.Q.Q.Q.Q.Q.Q.Q.Q.Q.Q.Q.Q.p#K",
"#J#5#5#5#5#5#5#5#y.G.L.L.L.L.L.L.L.L.L.L.L.L.L.L.L.L.n#J",
"#H#7#7#7#7#7#7#2.s.E.E.E.E.E.E.E.E.E.E.E.E.E.E.E.E.E.f#H",
"#h#9#9#9#9#9#9.d.q.q.q.q.q.q.q.q.q.q.q.q.q.q.q.q.q.q.c#G",
"#n#8#8#8#8#8#8...w.w.w.w.w.w.w.w.w.w.w.w.w.w.w.w.w.w.c#F",
"#E#6#6#6#6#6#6#6.h.H.H.H.H.H.H.H.H.H.H.H.H.H.H.H.H.H.k#E",
"#C#L#4#4#4#4#4#4#Z.z.M.M.M.M.M.M.M.M.M.M.M.M.M.M.M.M.n#C",
"#B.r#1#1#1#1#1#1#1#l.N.S.S.S.S.S.S.S.S.S.S.S.S.S.S.S.p#B",
"#z.y#Y#Y#Y#Y#Y#Y#Y#Y.I.W.W.W.W.W.W.W.W.W.W.W.W.W.W.W.u#z",
"#w#w..#U#U#U#U#U#U#U#U.F.Y.6.6.6.6.i#w#w#w#w#w#w#w#w#w#w",
"#v#v#r.T#M#M#M#M#M#M#q.4.m#.#.#.#..j#v#v#v#v#v#v#v#v#v#v",
"#u#u#u.7.A#I#I#I#I.5.J#u#u..#a#a#a.j#u#u#u#u#u#u#u#u#u#u",
"#t#t#t#t#t.l.....##k#t#t#t#t.e#c#c.j#t#t#t#t#t#t#t#t#t#t",
"#s#s#s#s#s#s#s#s#s#s#s#s#s#s#m.K#f.j#s#s#s#s#s#s#s#s#s#s",
"#r#r#r#r#r#r#r#r#r#r#r#r#r#r#r.0.8.j#r#r#r#r#r#r#r#r#r#r",
"#o#o#o#o#o#o#o#o#o#o#o#o#o#o#o#o.t.j#o#o#o#o#o#o#o#o#o#o",
"#o#o#o#o#o#o#o#o#o#o#o#o#o#o#o#o#o..#o#o#o#o#o#o#o#o#o#o",
"#o#o#o#o#o#o#o#o#o#o#o#o#o#o#o#o#o#o#o#o#o#o#o#o#o#o#o#o"
};
