/* XPM */
static char *quit[] = {
/* width height num_colors chars_per_pixel */
"    28    28       85            2",
/* colors */
".. c #040204",
".# c #848284",
".a c #840204",
".b c #444244",
".c c #440204",
".d c #242224",
".e c #240204",
".f c #c4c2c4",
".g c #a4a2a4",
".h c #c40204",
".i c #646264",
".j c #141214",
".k c #140204",
".l c #343234",
".m c #949294",
".n c #a40204",
".o c #545254",
".p c #640204",
".q c #b4b2b4",
".r c #e40204",
".s c #747274",
".t c #0c0a0c",
".u c #2c2a2c",
".v c #241e1c",
".w c #1c1a1c",
".x c #0c0204",
".y c #8c8a8c",
".z c #940204",
".A c #4c4a4c",
".B c #540204",
".C c #340204",
".D c #acaaac",
".E c #d40204",
".F c #6c6a6c",
".G c #3c3a3c",
".H c #9c9a9c",
".I c #b40204",
".J c #5c5a5c",
".K c #740204",
".L c #bcbabc",
".M c #f40204",
".N c #7c7a7c",
".O c #2c2624",
".P c #140e0c",
".Q c #040604",
".R c #848684",
".S c #8c0204",
".T c #444644",
".U c #4c0204",
".V c #242624",
".W c #2c0204",
".X c #fcfefc",
".Y c #a4a6a4",
".Z c #cc0204",
".0 c #646664",
".1 c #141614",
".2 c #1c0204",
".3 c #343634",
".4 c #949694",
".5 c #ac0204",
".6 c #545654",
".7 c #6c0204",
".8 c #b4b6b4",
".9 c #ec0204",
"#. c #747674",
"## c #0c0e0c",
"#a c #2c2e2c",
"#b c #1c1e1c",
"#c c #0c0604",
"#d c #8c8e8c",
"#e c #9c0204",
"#f c #4c4e4c",
"#g c #5c0204",
"#h c #3c0204",
"#i c #acaeac",
"#j c #dc0204",
"#k c #6c6e6c",
"#l c #3c3e3c",
"#m c #9c9e9c",
"#n c #bc0204",
"#o c #5c5e5c",
"#p c #7c0204",
"#q c #bcbebc",
"#r c #fc0204",
"#s c #7c7e7c",
/* pixels */
".f.f.f.f.f.f.f.f.f.f.f.f.f.f.f.f.f.f.f.f.f.f.f.f.f.f.f.#",
".f.f.f.f.f.f.f.f.f.f.f.0#a....#a.0.f.f.f.f.f.f.f.f.f.f#s",
".f.f.f.f.f.f.f.f.f...k#p#p#p#p#p.K.W..#d.f.f.f.f.f.f.f#s",
".f.f.f.f#q#q.8.x.a.a.S.a.a.a.a.a.a.a.a.a..#k#q#q#q#q.f#s",
"#q#q#q.f.f.4...z.z.S.S.z.S.S.S.S.S.z.z.z.S#h.8.f#q#q.f.#",
"#q#q#q#q.R#e.n.n.n.n.n.n.n.n.n.n.n.n.n.n.n.n.S.1#q#q#q.R",
"#q#q#q#i.x.I.I.I.5.5.5.5.I.I.5.5.5.I.I.5.5.5.5.K#q#q.f.#",
".L.L.L#h.h.h.h.h.h.h.h.h.h.h.h.h.h.h.h.h.h.h.Z.h.x.L.L#s",
".L.L.4.E.Z.E.E.E.E.E.E.E.E.E.E.E.E.E.E.E.E.E.E.E.h.V.8.#",
".8.8...r.r.r.r.r.r.r.r.r.r.r.r.r.r.r.r.r.r.r.r.r.r.S.8.#",
".q#m#p.9.9.9.9.9.9.9.9.9.9.9.9.9.9.9.9.9.9.9.9.9.9.9.q.#",
"#i.x.M.M.M.X.X.X.X.X.M.X.M.M.X.X.X.X.X.X.X.X.X.M.M.M.G#s",
"#i..#r.M#r.X.X#r#r#r.M.X.X.X.X#r.X.X#r#r.X#r#r.M#r#r.t.#",
".Y..#r#r#r.X.X.X.X#r#r#r.X.X#r#r.X.X#r#r.X#r#r#r#r#r...#",
".Y.k#r#r#r.X.X.X.X#r#r#r.X.X#r#r.X.X#r#r.X#r#r#r#r#r..#s",
".g..#r#r#r.X.X#r#r#r#r.X.X.X.X#r.X.X#r#r.X#r#r#r#r#r..#s",
"#m...M.M.M.X.X.X.X.X.M.X.M.M.X.X.X.X.M.M.X.M.M.M.M.M.1.R",
".H.3.9.M.9.M.M.M.M.M.M.M.M.9.M.M.M.M.M.M.M.M.M.9.9.M.i.#",
".m.4.e.r.r.r.r.r.r.r.r.r.r.r.r.r.r.r.r.r.r.r.r.r.r.h.4.#",
".m.4..#j#j.E#j#j#j#j.E.E#j#j#j.E.E#j#j#j#j#j#j#j#j.k.m.#",
"#d#d#d.n.Z.h.h.Z.Z.h.h.Z.Z.Z.Z.Z.h.h.Z.Z.Z.Z.Z.h.B.s#d.#",
".y.y.y...I#n#n#n#n#n#n.I#n.I#n#n.I#n#n#n#n#n#n#n...y.y.#",
".R.R.R.R.P.n.n.n.n.n.n.n.n.n.n.n.n.n.n.n.n.n.n...y.y.y.#",
".R.R.R.#.#.k.z.z.z#e#e.z.z#e#e#e.z.z#e#e.z.z..#..y.R.y.#",
".#.#.#.#.#.#.u.K.a.S.S.a.a.S.a.a.a.S.S.a#g...#.#.#.R.##s",
".#.R.#.##s.R.#.l..#p#p#p#p#p.a#p#p#p#p.e.T.#.##s.#.#.#.#",
".#.R#s.#.R#s#s#s.##s.3.....2.2....#b#s.#.#.#.R.##s.#.#.#",
".#.#.##s#s.#.##s#s.##s#s#s#s#s.#.##s.#.##s.##s#s.#.##s#s"
};
