/* XPM */
static char *redo-arrow[] = {
/* width height num_colors chars_per_pixel */
"    28    28      107            2",
/* colors */
".. c #000000",
".# c #010180",
".a c #020205",
".b c #020208",
".c c #030311",
".d c #030318",
".e c #03031c",
".f c #040405",
".g c #040409",
".h c #05050a",
".i c #070712",
".j c #090916",
".k c #09092a",
".l c #0a0a0b",
".m c #0a0a59",
".n c #0b0b1f",
".o c #0b0b27",
".p c #0b0b80",
".q c #0c0c24",
".r c #0c0c81",
".s c #0d0d33",
".t c #0f0f81",
".u c #101011",
".v c #111182",
".w c #151573",
".x c #16167f",
".y c #171783",
".z c #181874",
".A c #181883",
".B c #191969",
".C c #19197d",
".D c #1a1a1c",
".E c #1a1a75",
".F c #1b1b85",
".G c #1e1e86",
".H c #1f1f1f",
".I c #202086",
".J c #212121",
".K c #232388",
".L c #272728",
".M c #28288a",
".N c #2a2a5d",
".O c #2a2a88",
".P c #2b2b2b",
".Q c #2b2b8c",
".R c #2d2d8d",
".S c #2e2e70",
".T c #2e2e84",
".U c #2f2f2f",
".V c #2f2f8f",
".W c #303089",
".X c #303090",
".Y c #323283",
".Z c #333392",
".0 c #34347f",
".1 c #373791",
".2 c #393939",
".3 c #393996",
".4 c #3a3a3a",
".5 c #3d3d99",
".6 c #3f3f3f",
".7 c #40409c",
".8 c #424242",
".9 c #424294",
"#. c #43439a",
"## c #45459f",
"#a c #4646a1",
"#b c #4949a3",
"#c c #4b4ba5",
"#d c #5c5c5c",
"#e c #5d5d5d",
"#f c #6b6b6b",
"#g c #6c6c6c",
"#h c #6d6d6d",
"#i c #737373",
"#j c #7f7f7f",
"#k c #818181",
"#l c #828282",
"#m c #838383",
"#n c #858585",
"#o c #868686",
"#p c #888888",
"#q c #8b8b8b",
"#r c #8d8d8d",
"#s c #909090",
"#t c #919191",
"#u c #939393",
"#v c #969696",
"#w c #999999",
"#x c #9e9e9e",
"#y c #9f9f9f",
"#z c #a3a3a3",
"#A c #a6a6a6",
"#B c #aaaaaa",
"#C c #aeaeae",
"#D c #b1b1b1",
"#E c #b4b4b4",
"#F c #b7b7b7",
"#G c #b9b9b9",
"#H c #bababa",
"#I c #bcbcbc",
"#J c #bdbdbd",
"#K c #bfbfbf",
"#L c #c0c0c0",
"#M c #c1c1c1",
"#N c #c2c2c2",
"#O c #c3c3c3",
/* pixels */
"#k#O#O#O#O#O#O#O#O#O#O#O#O#O#O#O#O#O#O#O#O#O#O#O#O#O#k#k",
"#k#N#N#N#N#N#N#N#N#N#N#N#N#N#N#N#N#N#N#N#N#N#N#N#N#N#k#k",
"#k#M#M#M#M#M#M#M#M#M#M#M#M#M#M#M#M..#g#M#M#M#M#M#M#M#k#k",
"#k#L#L#L#L#L#L#L#L#L#L#L#L#L#L#L#L...c#v#L#L#L#L#L#L#k#k",
"#k#K#K#K#K#K#K#K#K#K#K#K#K#K#K#K#K...p.m#G#K#K#K#K#K#k#k",
"#k#J#J#J#J#J#J#J#J#J#J#J#J#J#J#J#J...p.t..#J#J#J#J#J#k#k",
"#k#I#I#I#I#I#I#I#I#I#I#I#I#I#I#I#I...p.t.x..#I#I#I#I#k#k",
"#k#H#H#H#H#H#H#H#H#H#H#H#H#H#q#e.U...p.t.y.z.u#H#H#H#k#k",
"#k#F#F#F#F#F#F#F#F#F#F.L.s.E.A.v.r.#.p.t.y.F.I.6#F#F#k#k",
"#k#E#E#E#E#E#E#E#E.D.q.Q.K.G.A.v.r.#.p.t.y.F.I.o#f#E#k#k",
"#k#D#D#D#D#D#D#D.l.W.V.Q.K.G.A.v.r.#.p.t.y.F.I.M.i#s#k#k",
"#k#C#C#C#C#C#z...1.Z.V.Q.K.G.A.v.r.#.p.t.y.F.I.M.R.a#k#k",
"#k#B#B#B#B#j.0.5.3.Z.V.Q.K.G.A.v.r.#.p.t.y.F.I.M.R.X..#k",
"#k#A#A#A#t.h.7.5.3.Z.V.Q.K.G.A.v.r.#.p.t.y.F.I.M.R.X..#k",
"#k#z#z#x..##.7.5.3.Z.V.Q.K.G.A.v.r.#.p.t.y.F.I.M.R.g#k#k",
"#k#y#y..#a##.7.5.3.Z.V.Q.K.G.A.v.r.#.p.t.y.F.I.M.n#h#k#k",
"#k#w#i#b#a##.7.5.3.Z.V.Q.K.G.A.v.r.#.p.t.y.F.I..#w#w#k#k",
"#k#v..#b#a##.7.5.3.Z.V.Q.K.G.A.v.r.#.p.t.y.F.B#r#v#v#k#k",
"#k#d.N#b#a##.7.5.3.Z.V.Q.K.G.w.d.....p.t.y.C.f#u#u#u#k#k",
"#k..#c#b#a##.7.5.3.Z.V.Q.K.k.6#s#s...p.t.y..#s#s#s#s#k#k",
"#k#l.f.9#a##.7.5.3.Z.V.O.2#q#q#q#q...p.t.H#q#q#q#q#q#k#k",
"#k#p#p.P.h#..7.5.3.Z.V..#p#p#p#p#p...p.b#p#p#p#p#p#p#k#k",
"#k#o#o#o#o.u.S.5.3.Z.j#l#o#o#o#o#o...e#d#o#o#o#o#o#o#k#k",
"#k#n#n#n#n#n.8...Y.T.J#n#n#n#n#n#n...4#n#n#n#n#n#n#n#k#k",
"#k#m#m#m#m#m#m#m#m.u#m#m#m#m#m#m#m#m#m#m#m#m#m#m#m#m#k#k",
"#k#l#l#l#l#l#l#l#l#l#l#l#l#l#l#l#l#l#l#l#l#l#l#l#l#l#k#k",
"#k#k#k#k#k#k#k#k#k#k#k#k#k#k#k#k#k#k#k#k#k#k#k#k#k#k#k#k",
"#k#k#k#k#k#k#k#k#k#k#k#k#k#k#k#k#k#k#k#k#k#k#k#k#k#k#k#k"
};
